<?xml version="1.0" encoding="UTF-8"?>
<svg width="32px" height="32px" viewBox="0 0 32 32" version="1.1" xmlns="http://www.w3.org/2000/svg" xmlns:xlink="http://www.w3.org/1999/xlink">
    <!-- Generator: Sketch 56.2 (81672) - https://sketch.com -->
    <title>World</title>
    <desc>Created with Sketch.</desc>
    <defs>
        <circle id="path-1" cx="16" cy="16" r="16"></circle>
    </defs>
    <g id="Flag-Icon" stroke="none" stroke-width="1" fill="none" fill-rule="evenodd">
        <g id="Other" transform="translate(-22.000000, -18.000000)">
            <g id="World" transform="translate(22.000000, 18.000000)">
                <mask id="mask-2" fill="white">
                    <use xlink:href="#path-1"></use>
                </mask>
                <use id="Oval" fill="#FFFFFF" xlink:href="#path-1"></use>
                <g id="np_world_11042_000000" mask="url(#mask-2)" fill="#000000" fill-rule="nonzero">
                    <g transform="translate(-16.000000, 0.000000)" id="Path">
                        <polygon points="19.2836992 19.8914417 18.4269526 19.0269551 17.5702061 19.0269551 15.8566459 17.2952747 14.9998994 17.2952747 14.1405369 16.4307882 12.4269768 16.4307882 11.999898 16.8643715 11.1431515 16.8643715 8.99991012 14.7017676 8.14316358 14.7017676 7.28380112 13.837281 7.28380112 12.9727944 8.14316358 12.1083079 10.7134703 12.1083079 14.1405906 8.64758661 14.999953 8.64758661 16.7135132 6.91854576 17.5702597 6.91854576 18.4270063 6.05405918 17.5702597 5.18693304 16.7135132 5.18693304 16.7135132 4.32244646 15.8567667 4.32244646 13.7135253 6.48505037 11.9999651 4.75600952 12.8567117 3.89152294 13.7134582 3.89152294 14.1405369 3.45794634 14.9998994 3.45794634 15.8566459 2.59345975 17.5702061 4.3225006 18.4269526 3.45801402 18.4269526 2.59352743 17.5702061 1.72904085 19.2837662 0 16.7134595 0 14.9998994 1.72904085 14.1405369 1.72904085 13.2837904 2.59352743 12.4270438 1.72904085 9.85673715 1.72904085 8.99999061 2.59352743 6.42706799 2.59352743 5.99998927 2.16259038 3.42706665 2.16259038 2.99998793 2.59352743 2.14324139 2.59352743 0 4.75613135 0.427078727 5.1870684 1.28644119 5.1870684 2.14318773 4.32258182 3.85674788 4.32258182 4.71349442 5.1870684 4.71349442 6.9187488 3.85674788 7.78323539 3.85674788 8.64772197 3.00000134 9.51220855 3.00000134 10.3766951 4.7135615 12.1083755 4.7135615 12.9728621 7.2838682 15.5663896 8.14323065 15.5663896 9.85679081 17.2954304 10.7135374 17.2954304 11.143232 17.729007 11.143232 18.5934936 10.7135374 19.0270702 10.7135374 20.756111 11.143232 21.1870481 11.143232 22.0515347 13.2838575 24.2141386 13.2838575 28.5393464 14.140604 29.403833 14.140604 31.1328739 14.9999665 32 15.856713 32 15.856713 31.1328739 15.4270184 30.7019368 15.4270184 29.8348107 16.7135132 28.5393329 16.7135132 27.6748463 18.4270734 25.9458055 18.4270734 25.0813189 20.1406335 23.3496385 20.1432535 22.4851519 21 21.6206653 21 20.7561787 20.1406375 19.8916921"></polygon>
                        <polygon points="27 0.398788702 26.5280067 0 18.946848 0 18 0.799994989 18.4748843 1.19878369 19.4217323 1.19878369 19.896624 1.60001503 19.896624 2.40001002 18.946885 3.20000501 19.896624 4 20.843472 4 21.7903199 3.20000501 22.7371679 3.20000501 23.6840158 2.40001002 24.6308638 2.40001002"></polygon>
                        <polygon points="38 23.5003071 38 25.5018951 38.2492406 26 38.5000078 25.5018951 38.5000078 24.4996147 39 23.5003853 39 22.5011558 38.7492328 22"></polygon>
                        <polygon points="27 6 27.5 6 28 5.50076217 28 5 27.5 5 27 5.50076217"></polygon>
                        <polygon points="49.4629343 16.9342944 51.2182577 18.6136426 51.2182577 17.7727214 49.9030878 16.5163936 50.3432551 16.0959133 51.2182027 16.9342747 52.0985097 16.0959133 52.0985097 15.2575519 51.2182027 14.4191905 52.0985097 13.5808292 52.976137 13.5808292 53.8537643 12.7424678 53.8537643 11.0631196 52.976137 10.2247582 52.976137 9.3863968 53.4136245 8.96592309 53.8537918 9.3863968 54.7314191 9.3863968 55.6090464 8.54803542 55.6090464 6.87124701 53.8537231 5.19189882 55.6090464 5.19189882 56.4866737 4.35353743 58.6821505 6.45078643 58.6821505 4.77399802 60 3.51511041 59.1223727 2.67674903 52.9760958 2.67674903 52.5359285 2.2588351 49.0252819 2.2588351 48.5851146 1.83836139 45.952164 1.83836139 45.0745367 1 41.5612104 1 40.6835831 1.83836139 39.8059558 1.83836139 38.9283285 2.67672277 35.4150022 2.67672277 34.9775146 3.09719648 34.5373474 2.67672277 31.0240211 2.67672277 28.8312239 4.77397176 29.2687115 5.19188569 29.2687115 6.03280686 28.3856561 6.87116825 27.5080288 6.87116825 27.0678616 7.28908218 27.5080288 7.70955589 27.5080288 8.54791727 25.7527055 8.54791727 25.3125314 8.9658312 25.3125314 9.80675237 25.7553852 10.2246663 26.6356921 10.2246663 28.3910155 8.54787789 29.2686428 8.54787789 29.70881 8.12740418 30.5864373 8.96576557 31.0239249 8.54785164 31.9042318 9.38621302 32.7818591 9.38621302 33.6594865 10.2245744 35.4148098 10.2245744 35.4148098 11.0629358 34.9746357 11.4834095 33.2193124 11.4834095 32.7818248 11.0629358 31.9015178 11.0629358 31.4640303 11.4834095 31.0238562 11.0629358 30.1462288 11.0629358 29.2686015 10.2245744 27.5132782 10.2245744 27.0731041 10.6450481 26.1954768 10.6450481 24 12.7422971 24 16.0958739 25.758003 17.7726623 27.5133263 17.7726623 27.9534935 17.3547484 28.8311209 17.3547484 29.2686084 17.7726623 29.2686084 19.4520105 30.5864579 20.7083384 30.5864579 21.5466997 30.1462907 21.9671734 30.1462907 23.6439619 30.5864579 24.0644421 30.5864579 24.9028035 31.0239455 25.3232772 31.0239455 26.1616386 31.9042525 27 32.7818798 27 34.5372031 25.3232116 34.5372031 24.4848502 36.7326799 22.3876012 36.7326799 21.54668 36.2925127 21.1287661 36.2925127 19.4519777 38.928143 16.9342681 38.928143 16.0959067 37.1728196 16.0959067 36.2925127 15.2575454 36.2925127 14.419184 34.9773428 13.1602964 34.9746583 12.321935 35.4148324 11.9040211 35.4148324 12.7423824 37.1728354 14.4191708 37.1728354 15.2575322 37.610323 15.6780059 38.0504902 15.2575322 38.9281175 15.2575322 40.6834409 13.5807438 39.8058136 12.7423824 38.9281862 12.7423824 38.0505589 11.9040211 38.4880465 11.4835473 39.3656738 12.3219087 40.2433011 12.3219087 40.6834683 12.742389 42.4387917 12.742389 43.7566412 13.9987168 43.7566412 14.839638 44.6342685 15.6779994 44.6342685 16.5163608 45.0744357 16.9342747 45.5119233 16.5163608 45.5119233 14.8395724 46.8297728 13.5806848 47.7074001 13.5806848 49.4627234 15.2574732"></polygon>
                    </g>
                </g>
            </g>
        </g>
    </g>
</svg>