<?xml version="1.0" standalone="no"?>
<!DOCTYPE svg PUBLIC "-//W3C//DTD SVG 20010904//EN"
 "http://www.w3.org/TR/2001/REC-SVG-20010904/DTD/svg10.dtd">
<svg version="1.0" xmlns="http://www.w3.org/2000/svg"
 width="1500.000000pt" height="1500.000000pt" viewBox="0 0 1500.000000 1500.000000"
 preserveAspectRatio="xMidYMid meet">
<metadata>
Created by potrace 1.15, written by Peter Selinger 2001-2017
</metadata>
<g transform="translate(0.000000,1500.000000) scale(0.100000,-0.100000)"
fill="red" stroke="none">
<path d="M50 14989 c0 -14 25 -39 39 -39 6 0 11 -4 11 -10 0 -6 33 -10 80 -10
47 0 80 4 80 10 0 6 5 10 11 10 14 0 39 25 39 39 0 7 -44 11 -130 11 -86 0
-130 -4 -130 -11z"/>
<path d="M1410 14989 c0 -14 25 -39 39 -39 6 0 11 -4 11 -10 0 -5 9 -10 20
-10 11 0 20 -4 20 -10 0 -5 25 -10 55 -10 30 0 55 5 55 10 0 6 7 10 15 10 18
0 65 43 65 60 0 6 -49 10 -140 10 -93 0 -140 -4 -140 -11z"/>
<path d="M2810 14960 c0 -57 48 -130 85 -130 8 0 15 -4 15 -10 0 -6 28 -10 65
-10 36 0 65 3 65 8 0 4 14 13 31 21 18 8 34 22 36 32 3 11 9 19 14 19 5 0 9 9
9 20 0 11 5 20 10 20 6 0 10 16 10 35 l0 35 -170 0 -170 0 0 -40z"/>
<path d="M4874 14983 c-34 -32 -61 -153 -34 -153 6 0 10 -7 10 -15 0 -20 65
-85 85 -85 8 0 15 -4 15 -10 0 -5 25 -10 55 -10 30 0 55 5 55 10 0 6 5 10 12
10 18 0 78 50 78 66 0 7 5 14 10 14 6 0 10 28 10 63 0 49 -4 68 -20 85 -11 12
-20 26 -20 32 0 6 -43 10 -118 10 -99 0 -122 -3 -138 -17z"/>
<path d="M5410 14955 c0 -25 5 -45 10 -45 6 0 10 -8 10 -18 0 -10 11 -25 25
-32 14 -7 25 -17 25 -22 0 -4 11 -8 25 -8 14 0 25 -4 25 -10 0 -5 20 -10 45
-10 25 0 45 5 45 10 0 6 8 10 18 10 26 0 92 64 92 88 0 12 5 24 10 27 6 3 10
17 10 31 l0 24 -170 0 -170 0 0 -45z"/>
<path d="M5990 14990 c0 -16 68 -80 85 -80 8 0 15 -4 15 -10 0 -18 97 -11 135
10 41 23 85 64 85 80 0 6 -55 10 -160 10 -103 0 -160 -4 -160 -10z"/>
<path d="M8890 14990 c0 -14 46 -60 60 -60 5 0 10 -4 10 -10 0 -5 9 -10 20
-10 11 0 20 -4 20 -10 0 -5 20 -10 45 -10 25 0 45 5 45 10 0 6 7 10 16 10 16
0 73 36 86 55 23 32 9 35 -147 35 -101 0 -155 -4 -155 -10z"/>
<path d="M9450 14965 c0 -19 5 -35 10 -35 6 0 10 -7 10 -15 0 -18 43 -65 60
-65 5 0 10 -4 10 -10 0 -5 11 -10 25 -10 14 0 35 -6 46 -12 17 -10 23 -10 26
0 3 6 18 12 34 12 16 0 29 5 29 10 0 6 5 10 10 10 17 0 60 47 60 65 0 8 5 15
10 15 6 0 10 16 10 35 l0 35 -170 0 -170 0 0 -35z"/>
<path d="M10063 14993 c-7 -2 -13 -13 -13 -24 0 -10 -4 -19 -10 -19 -6 0 -10
-28 -10 -65 0 -64 1 -67 44 -110 30 -31 52 -45 70 -45 14 0 26 -4 26 -10 0 -5
11 -10 25 -10 14 0 25 5 25 10 0 6 9 10 20 10 37 0 90 38 90 64 0 9 4 16 8 16
4 0 14 21 21 47 11 35 11 48 3 51 -7 2 -12 17 -12 33 0 16 -4 29 -10 29 -5 0
-10 7 -10 15 0 13 -20 15 -127 14 -71 0 -134 -3 -140 -6z"/>
<path d="M11930 14975 c0 -14 5 -25 10 -25 6 0 10 -6 10 -13 0 -16 36 -47 55
-47 8 0 15 -4 15 -10 0 -14 116 -12 142 3 35 19 88 79 88 99 0 17 -12 18 -160
18 l-160 0 0 -25z"/>
<path d="M12588 14993 c-16 -2 -28 -9 -28 -14 0 -5 -5 -9 -10 -9 -6 0 -26 -16
-45 -35 -33 -33 -35 -38 -35 -105 0 -67 2 -72 35 -105 19 -19 41 -35 50 -35 8
0 15 -4 15 -10 0 -6 27 -10 60 -10 33 0 60 4 60 10 0 6 7 10 15 10 17 0 53 33
73 68 6 12 12 49 12 82 0 56 -3 63 -35 95 -19 19 -39 35 -44 35 -5 0 -11 4
-13 9 -4 11 -74 20 -110 14z"/>
<path d="M13730 14965 c0 -19 5 -35 10 -35 6 0 10 -9 10 -20 0 -11 5 -20 10
-20 6 0 10 -6 10 -13 0 -16 36 -47 55 -47 8 0 15 -4 15 -10 0 -6 28 -10 65
-10 37 0 65 4 65 10 0 6 7 10 15 10 9 0 27 11 40 25 14 13 25 31 25 40 0 8 5
15 10 15 6 0 10 20 10 45 l0 45 -170 0 -170 0 0 -35z"/>
<path d="M963 14976 c-13 -6 -23 -14 -23 -18 0 -5 -5 -8 -11 -8 -16 0 -39 -26
-39 -44 0 -9 -4 -16 -10 -16 -6 0 -10 -30 -10 -70 0 -38 3 -70 8 -70 4 0 16
-14 27 -30 11 -16 26 -30 33 -30 6 0 12 -4 12 -10 0 -5 11 -10 24 -10 14 0 28
-4 31 -10 3 -5 17 -10 31 -10 13 0 24 5 24 10 0 6 14 10 30 10 17 0 30 5 30
10 0 6 5 10 11 10 16 0 59 51 59 69 0 8 6 30 13 49 10 28 10 36 0 39 -7 3 -13
16 -13 29 0 25 -45 77 -88 102 -26 15 -108 14 -139 -2z"/>
<path d="M2380 14920 c0 -5 -9 -10 -20 -10 -11 0 -20 -4 -20 -10 0 -5 -5 -10
-11 -10 -16 0 -39 -26 -39 -44 0 -9 -4 -16 -10 -16 -6 0 -10 -28 -10 -65 0
-64 1 -67 44 -110 30 -31 52 -45 70 -45 14 0 26 -4 26 -10 0 -5 9 -10 19 -10
11 0 23 5 26 10 3 6 17 10 31 10 13 0 24 3 24 8 0 4 14 13 30 20 18 8 30 21
30 33 0 10 5 19 10 19 6 0 10 32 10 75 0 73 -1 77 -35 110 -19 19 -41 35 -49
35 -8 0 -18 5 -21 10 -3 6 -28 10 -56 10 -27 0 -49 -4 -49 -10z"/>
<path d="M10735 14920 c-3 -5 -17 -10 -31 -10 -13 0 -24 -4 -24 -10 0 -5 -5
-10 -10 -10 -17 0 -60 -47 -60 -65 0 -8 -4 -15 -10 -15 -5 0 -10 -22 -10 -50
0 -27 5 -50 10 -50 6 0 10 -9 10 -20 0 -11 4 -20 9 -20 5 0 13 -9 16 -20 3
-11 13 -20 21 -20 8 0 14 -4 14 -10 0 -5 9 -10 20 -10 11 0 20 -4 20 -10 0 -5
23 -10 50 -10 28 0 50 5 50 10 0 6 7 10 15 10 9 0 31 16 50 35 19 19 35 41 35
50 0 8 5 15 10 15 6 0 10 23 10 50 0 28 -4 50 -10 50 -5 0 -10 7 -10 15 0 18
-43 65 -60 65 -5 0 -10 5 -10 10 0 6 -11 10 -24 10 -14 0 -28 5 -31 10 -3 6
-15 10 -25 10 -10 0 -22 -4 -25 -10z"/>
<path d="M4370 14900 c0 -5 -7 -10 -15 -10 -8 0 -15 -4 -15 -10 0 -5 -5 -10
-11 -10 -16 0 -39 -26 -39 -44 0 -9 -4 -16 -10 -16 -6 0 -10 -27 -10 -60 0
-33 4 -60 10 -60 6 0 10 -7 10 -15 0 -18 43 -65 60 -65 5 0 10 -4 10 -10 0 -6
32 -10 75 -10 43 0 75 4 75 10 0 6 7 10 15 10 8 0 15 5 15 10 0 6 7 10 15 10
8 0 15 9 15 20 0 11 5 20 10 20 6 0 10 9 10 20 0 11 5 20 10 20 6 0 10 18 10
40 0 22 -4 40 -10 40 -5 0 -10 9 -10 20 0 11 -4 20 -9 20 -5 0 -11 8 -14 19
-2 10 -18 24 -36 32 -17 8 -31 17 -31 21 0 5 -29 8 -65 8 -37 0 -65 -4 -65
-10z"/>
<path d="M14360 14860 c0 -5 -7 -10 -15 -10 -8 0 -15 -4 -15 -10 0 -5 -6 -10
-14 -10 -8 0 -18 -9 -21 -20 -3 -11 -11 -20 -16 -20 -5 0 -9 -9 -9 -20 0 -11
-4 -20 -10 -20 -14 0 -13 -56 2 -99 13 -37 54 -81 76 -81 6 0 12 -4 12 -10 0
-6 30 -10 70 -10 40 0 70 4 70 10 0 6 7 10 15 10 8 0 15 5 15 10 0 6 7 10 15
10 8 0 15 9 15 20 0 11 5 20 10 20 6 0 10 9 10 20 0 11 5 20 10 20 6 0 10 18
10 40 0 22 -4 40 -10 40 -5 0 -10 9 -10 20 0 11 -4 20 -9 20 -5 0 -13 9 -16
20 -3 11 -13 20 -21 20 -8 0 -14 5 -14 10 0 6 -7 10 -15 10 -8 0 -15 5 -15 10
0 6 -27 10 -60 10 -33 0 -60 -4 -60 -10z"/>
<path d="M11280 14760 c0 -5 -8 -10 -18 -10 -23 0 -92 -63 -92 -83 0 -9 -4
-19 -10 -22 -5 -3 -10 -22 -10 -41 0 -19 5 -34 10 -34 6 0 10 -11 10 -25 0
-29 40 -75 65 -75 8 0 15 -4 15 -10 0 -6 30 -10 70 -10 39 0 70 3 70 8 0 4 12
13 28 19 26 12 52 52 52 80 0 7 5 13 10 13 6 0 10 14 10 30 0 17 -4 30 -10 30
-5 0 -10 12 -10 26 0 30 -63 94 -92 94 -10 0 -18 5 -18 10 0 6 -18 10 -40 10
-22 0 -40 -4 -40 -10z"/>
<path d="M13110 14760 c0 -5 -7 -10 -15 -10 -9 0 -31 -16 -50 -35 -33 -33 -35
-38 -35 -105 0 -65 2 -73 32 -105 17 -19 37 -35 45 -35 7 0 13 -4 13 -10 0 -6
28 -10 65 -10 37 0 65 4 65 10 0 6 7 10 15 10 8 0 15 5 15 10 0 6 5 10 11 10
17 0 39 27 39 49 0 11 5 23 10 26 6 3 10 24 10 46 0 21 -4 39 -10 39 -5 0 -10
9 -10 20 0 11 -4 20 -9 20 -5 0 -13 9 -16 20 -3 11 -13 20 -21 20 -8 0 -14 3
-14 8 0 4 -12 13 -27 20 -32 14 -113 16 -113 2z"/>
<path d="M3810 14740 c0 -5 -7 -10 -15 -10 -8 0 -15 -4 -15 -10 0 -5 -5 -10
-11 -10 -19 0 -39 -28 -39 -54 0 -14 -4 -26 -10 -26 -5 0 -10 -18 -10 -40 0
-22 5 -40 10 -40 6 0 10 -9 10 -20 0 -11 4 -20 9 -20 5 0 13 -9 16 -20 3 -11
13 -20 21 -20 8 0 14 -3 14 -7 0 -5 12 -14 27 -20 32 -15 113 -17 113 -3 0 6
7 10 15 10 9 0 31 16 50 35 34 33 35 37 35 110 0 43 -4 75 -10 75 -5 0 -10 7
-10 16 0 9 -9 18 -20 21 -11 3 -20 9 -20 14 0 5 -7 9 -15 9 -8 0 -15 5 -15 10
0 6 -28 10 -65 10 -37 0 -65 -4 -65 -10z"/>
<path d="M480 14700 c0 -5 -9 -10 -20 -10 -11 0 -20 -4 -20 -10 0 -5 -5 -10
-11 -10 -7 0 -22 -12 -35 -27 -20 -24 -24 -39 -24 -96 0 -64 2 -70 35 -102 19
-19 39 -35 45 -35 5 0 10 -4 10 -10 0 -6 28 -10 65 -10 37 0 65 4 65 10 0 6 7
10 15 10 8 0 15 5 15 10 0 6 5 10 11 10 17 0 38 32 39 58 0 12 5 22 10 22 6 0
10 18 10 40 0 22 -4 40 -10 40 -5 0 -10 7 -10 15 0 20 -65 85 -84 85 -8 0 -18
5 -21 10 -3 6 -24 10 -46 10 -21 0 -39 -4 -39 -10z"/>
<path d="M1840 14680 c0 -5 -5 -10 -11 -10 -6 0 -27 -16 -46 -35 -34 -34 -36
-39 -36 -104 0 -66 2 -70 36 -105 20 -20 43 -36 52 -36 8 0 15 -4 15 -10 0 -5
23 -10 50 -10 28 0 50 5 50 10 0 6 7 10 15 10 26 0 85 66 85 95 0 14 5 25 10
25 6 0 10 9 10 20 0 11 -4 20 -10 20 -5 0 -10 12 -10 26 0 26 -57 94 -79 94
-6 0 -11 5 -11 10 0 6 -27 10 -60 10 -33 0 -60 -4 -60 -10z"/>
<path d="M7050 14640 c0 -5 -11 -10 -25 -10 -14 0 -25 -4 -25 -10 0 -5 -5 -10
-11 -10 -16 0 -39 -26 -39 -44 0 -9 -4 -16 -10 -16 -6 0 -10 -27 -10 -60 0
-33 4 -60 10 -60 6 0 10 -7 10 -15 0 -20 45 -65 65 -65 8 0 15 -4 15 -10 0 -6
27 -10 60 -10 33 0 60 4 60 10 0 6 7 10 15 10 20 0 65 45 65 65 0 8 5 15 10
15 6 0 10 27 10 60 0 33 -4 60 -10 60 -5 0 -10 7 -10 16 0 18 -23 44 -39 44
-6 0 -11 5 -11 10 0 6 -9 10 -19 10 -11 0 -23 5 -26 10 -3 6 -24 10 -46 10
-21 0 -39 -4 -39 -10z"/>
<path d="M7600 14640 c0 -5 -5 -10 -10 -10 -17 0 -60 -47 -60 -65 0 -8 -4 -15
-10 -15 -5 0 -10 -25 -10 -55 0 -46 4 -60 25 -81 14 -14 25 -29 25 -34 0 -6 7
-10 15 -10 8 0 15 -4 15 -10 0 -5 11 -10 25 -10 14 0 25 -4 25 -10 0 -5 14
-10 30 -10 17 0 30 5 30 10 0 6 11 10 25 10 14 0 25 5 25 10 0 6 7 10 15 10 8
0 15 4 15 10 0 5 11 20 25 34 21 21 25 35 25 84 0 52 -3 62 -34 95 -18 20 -39
37 -45 37 -6 0 -11 5 -11 10 0 6 -30 10 -70 10 -40 0 -70 -4 -70 -10z"/>
<path d="M8218 14632 c-21 -2 -38 -7 -38 -13 0 -5 -5 -9 -10 -9 -17 0 -60 -47
-60 -65 0 -8 -4 -15 -10 -15 -5 0 -10 -22 -10 -50 0 -27 5 -50 10 -50 6 0 10
-7 10 -15 0 -18 43 -65 60 -65 5 0 10 -4 10 -10 0 -6 30 -10 70 -10 40 0 70 4
70 10 0 6 5 10 10 10 17 0 60 47 60 65 0 8 5 15 10 15 14 0 12 86 -2 112 -7
13 -28 37 -46 54 -35 33 -67 41 -134 36z"/>
<path d="M6470 14600 c0 -5 -7 -10 -17 -10 -22 0 -83 -48 -83 -66 0 -7 -4 -14
-10 -14 -6 0 -10 -27 -10 -60 0 -33 4 -60 10 -60 6 0 10 -7 10 -16 0 -18 23
-44 39 -44 6 0 11 -4 11 -10 0 -5 9 -10 20 -10 11 0 20 -4 20 -10 0 -14 81
-12 113 3 15 6 27 15 27 20 0 4 5 7 11 7 16 0 39 26 39 44 0 9 5 16 10 16 6 0
10 27 10 60 0 33 -4 60 -10 60 -5 0 -10 7 -10 16 0 18 -23 44 -39 44 -6 0 -11
5 -11 10 0 6 -11 10 -25 10 -14 0 -25 5 -25 10 0 6 -18 10 -40 10 -22 0 -40
-4 -40 -10z"/>
<path d="M8760 14580 c0 -5 -5 -10 -10 -10 -17 0 -60 -47 -60 -65 0 -8 -4 -15
-10 -15 -14 0 -13 -86 1 -112 21 -40 78 -88 103 -88 13 0 26 -6 29 -12 3 -10
9 -10 26 0 11 6 30 12 41 12 24 0 90 62 90 85 0 8 5 15 10 15 6 0 10 23 10 50
0 28 -4 50 -10 50 -5 0 -10 7 -10 15 0 18 -43 65 -60 65 -5 0 -10 5 -10 10 0
6 -30 10 -70 10 -40 0 -70 -4 -70 -10z"/>
<path d="M11840 14580 c0 -5 -9 -10 -21 -10 -25 0 -89 -61 -89 -84 0 -9 -4
-16 -10 -16 -5 0 -10 -22 -10 -50 0 -27 5 -50 10 -50 6 0 10 -7 10 -15 0 -20
45 -65 65 -65 8 0 15 -4 15 -10 0 -6 27 -10 60 -10 33 0 60 4 60 10 0 6 7 10
15 10 9 0 27 11 40 25 14 13 25 31 25 40 0 8 5 15 10 15 6 0 10 27 10 60 0 33
-3 60 -7 60 -5 0 -17 14 -28 30 -11 16 -26 30 -32 30 -7 0 -13 5 -13 10 0 6
-11 10 -25 10 -14 0 -25 5 -25 10 0 6 -13 10 -30 10 -16 0 -30 -4 -30 -10z"/>
<path d="M3270 14560 c0 -5 -7 -10 -15 -10 -9 0 -31 -16 -50 -35 -33 -32 -35
-38 -35 -100 0 -37 4 -65 10 -65 6 0 10 -7 10 -16 0 -18 23 -44 39 -44 6 0 11
-4 11 -10 0 -5 9 -10 20 -10 11 0 20 -4 20 -10 0 -5 18 -10 39 -10 22 0 43 5
46 10 3 6 13 10 21 10 19 0 84 65 84 85 0 8 5 15 10 15 6 0 10 18 10 40 0 22
-4 40 -10 40 -5 0 -10 9 -10 20 0 11 -4 20 -10 20 -5 0 -10 9 -10 20 0 11 -7
20 -15 20 -8 0 -15 5 -15 10 0 6 -9 10 -20 10 -11 0 -20 5 -20 10 0 6 -25 10
-55 10 -30 0 -55 -4 -55 -10z"/>
<path d="M14850 14560 c0 -5 -4 -10 -10 -10 -15 0 -50 -33 -50 -47 0 -7 -4
-13 -10 -13 -6 0 -10 -30 -10 -70 0 -40 4 -70 10 -70 6 0 10 -9 10 -20 0 -11
7 -20 15 -20 8 0 15 -4 15 -10 0 -5 7 -10 15 -10 8 0 15 -4 15 -10 0 -6 32
-10 75 -10 l75 0 0 150 0 150 -75 0 c-43 0 -75 -4 -75 -10z"/>
<path d="M5860 14520 c0 -5 -5 -10 -10 -10 -16 0 -60 -47 -60 -64 0 -8 -4 -18
-10 -21 -5 -3 -10 -22 -10 -41 0 -19 5 -34 10 -34 6 0 10 -12 10 -26 0 -27 43
-74 68 -74 6 0 12 -4 12 -10 0 -6 28 -10 65 -10 37 0 65 4 65 10 0 6 5 10 10
10 17 0 60 47 60 65 0 8 5 15 10 15 6 0 10 25 10 55 0 53 -3 59 -44 100 -44
45 -44 45 -115 45 -41 0 -71 -4 -71 -10z"/>
<path d="M9380 14520 c0 -5 -11 -10 -25 -10 -14 0 -25 -3 -25 -8 0 -4 -13 -13
-30 -20 -18 -8 -30 -21 -30 -33 0 -10 -4 -19 -10 -19 -6 0 -10 -27 -10 -60 0
-33 4 -60 10 -60 6 0 10 -7 10 -16 0 -19 48 -64 68 -64 6 0 12 -4 12 -10 0 -5
25 -10 55 -10 30 0 55 5 55 10 0 6 7 10 15 10 19 0 55 31 55 47 0 7 5 13 10
13 6 0 10 9 10 20 0 11 5 20 10 20 6 0 10 15 10 34 0 19 -4 38 -10 41 -5 3
-10 13 -10 21 0 22 -66 84 -90 84 -11 0 -20 5 -20 10 0 6 -13 10 -30 10 -16 0
-30 -4 -30 -10z"/>
<path d="M13620 14500 c0 -5 -5 -10 -10 -10 -17 0 -60 -47 -60 -65 0 -8 -4
-15 -10 -15 -5 0 -10 -22 -10 -50 0 -27 5 -50 10 -50 6 0 10 -7 10 -15 0 -18
43 -65 60 -65 5 0 10 -4 10 -10 0 -6 30 -10 70 -10 40 0 70 4 70 10 0 6 5 10
10 10 16 0 60 47 60 64 0 8 5 18 10 21 6 3 10 24 10 45 0 21 -4 42 -10 45 -5
3 -10 13 -10 21 0 20 -45 64 -65 64 -8 0 -15 5 -15 10 0 6 -28 10 -65 10 -37
0 -65 -4 -65 -10z"/>
<path d="M5325 14440 c-3 -5 -15 -10 -26 -10 -10 0 -19 -4 -19 -10 0 -5 -5
-10 -11 -10 -16 0 -39 -26 -39 -44 0 -9 -4 -16 -10 -16 -6 0 -10 -27 -10 -62
0 -52 4 -68 24 -90 13 -16 28 -28 35 -28 6 0 11 -4 11 -10 0 -5 9 -10 20 -10
11 0 20 -4 20 -10 0 -5 18 -10 40 -10 22 0 40 5 40 10 0 6 9 10 20 10 11 0 20
5 20 10 0 6 5 10 11 10 7 0 22 12 35 28 19 22 24 38 24 85 0 67 -28 127 -59
127 -6 0 -11 5 -11 10 0 6 -9 10 -20 10 -11 0 -20 5 -20 10 0 6 -15 10 -34 10
-19 0 -38 -4 -41 -10z"/>
<path d="M1320 14420 c0 -5 -5 -10 -10 -10 -6 0 -26 -16 -45 -35 -33 -32 -35
-38 -35 -100 0 -37 4 -65 10 -65 6 0 10 -7 10 -16 0 -20 24 -44 44 -44 9 0 16
-4 16 -10 0 -6 30 -10 70 -10 40 0 70 4 70 10 0 6 7 10 15 10 8 0 15 5 15 10
0 6 7 10 15 10 8 0 15 9 15 20 0 11 5 20 10 20 6 0 10 28 10 65 0 62 -2 68
-35 100 -19 19 -41 35 -50 35 -8 0 -15 5 -15 10 0 6 -25 10 -55 10 -30 0 -55
-4 -55 -10z"/>
<path d="M9950 14420 c0 -5 -11 -10 -25 -10 -14 0 -25 -4 -25 -10 0 -5 -5 -10
-10 -10 -6 0 -22 -11 -35 -25 -22 -21 -25 -33 -25 -95 0 -67 2 -72 35 -105 19
-19 43 -35 55 -35 11 0 20 -4 20 -10 0 -5 18 -10 40 -10 22 0 40 5 40 10 0 6
9 10 20 10 11 0 20 5 20 10 0 6 5 10 11 10 16 0 39 26 39 44 0 9 5 16 10 16 6
0 10 27 10 60 0 33 -4 60 -10 60 -5 0 -10 7 -10 16 0 18 -23 44 -39 44 -6 0
-11 5 -11 10 0 6 -11 10 -25 10 -14 0 -25 5 -25 10 0 6 -13 10 -30 10 -16 0
-30 -4 -30 -10z"/>
<path d="M0 14250 l0 -160 30 0 c56 0 140 69 140 114 0 14 5 26 10 26 6 0 10
9 10 20 0 11 -4 20 -10 20 -5 0 -10 11 -10 25 0 26 -39 75 -60 75 -5 0 -10 5
-10 10 0 6 -11 10 -24 10 -14 0 -28 5 -31 10 -3 6 -15 10 -26 10 -18 0 -19 -8
-19 -160z"/>
<path d="M2765 14360 c-3 -5 -17 -10 -31 -10 -13 0 -24 -3 -24 -8 0 -4 -13
-13 -30 -20 -18 -8 -30 -21 -30 -33 0 -10 -4 -19 -10 -19 -6 0 -10 -27 -10
-60 0 -33 4 -60 10 -60 6 0 10 -7 10 -16 0 -18 23 -44 39 -44 6 0 11 -4 11
-10 0 -5 9 -10 20 -10 11 0 20 -4 20 -10 0 -5 18 -10 40 -10 22 0 40 5 40 10
0 6 9 10 20 10 11 0 20 5 20 10 0 6 5 10 11 10 12 0 29 17 47 48 14 26 16 132
2 132 -5 0 -10 7 -10 16 0 18 -23 44 -39 44 -6 0 -11 5 -11 10 0 6 -13 10 -30
10 -16 0 -30 5 -30 10 0 6 -6 10 -14 10 -8 0 -18 -4 -21 -10z"/>
<path d="M12350 14360 c0 -5 -7 -10 -15 -10 -8 0 -15 -4 -15 -10 0 -5 -7 -10
-15 -10 -8 0 -15 -9 -15 -20 0 -11 -4 -20 -10 -20 -6 0 -10 -30 -10 -70 0 -40
4 -70 10 -70 6 0 10 -6 10 -13 0 -16 36 -47 55 -47 8 0 15 -4 15 -10 0 -5 25
-10 55 -10 30 0 55 5 55 10 0 6 7 10 15 10 9 0 27 11 40 25 14 13 25 31 25 40
0 8 5 15 10 15 6 0 10 23 10 50 0 28 -4 50 -10 50 -5 0 -10 7 -10 15 0 18 -43
65 -60 65 -5 0 -10 5 -10 10 0 6 -28 10 -65 10 -37 0 -65 -4 -65 -10z"/>
<path d="M4765 14320 c-3 -5 -15 -10 -26 -10 -25 0 -89 -63 -89 -88 0 -10 -5
-23 -12 -30 -30 -30 53 -162 102 -162 11 0 20 -4 20 -10 0 -5 14 -10 30 -10
17 0 30 5 30 10 0 6 11 10 25 10 14 0 25 5 25 10 0 6 6 10 14 10 8 0 18 9 21
20 3 11 11 20 16 20 5 0 9 9 9 20 0 11 5 20 10 20 6 0 10 18 10 40 0 22 -4 40
-10 40 -5 0 -10 9 -10 20 0 11 -4 20 -9 20 -5 0 -13 9 -16 20 -3 11 -13 20
-21 20 -8 0 -14 5 -14 10 0 6 -11 10 -25 10 -14 0 -25 5 -25 10 0 6 -11 10
-24 10 -14 0 -28 -4 -31 -10z"/>
<path d="M10480 14280 c0 -5 -5 -10 -10 -10 -17 0 -60 -47 -60 -65 0 -8 -4
-15 -10 -15 -5 0 -10 -22 -10 -50 0 -27 5 -50 10 -50 6 0 10 -7 10 -16 0 -18
23 -44 39 -44 6 0 11 -4 11 -10 0 -5 9 -10 20 -10 11 0 20 -4 20 -10 0 -5 20
-10 45 -10 25 0 45 5 45 10 0 6 7 10 15 10 9 0 31 16 50 35 33 32 35 38 35
100 0 37 -4 65 -10 65 -5 0 -10 9 -10 20 0 11 -7 20 -15 20 -8 0 -15 5 -15 10
0 6 -7 10 -15 10 -8 0 -15 5 -15 10 0 6 -28 10 -65 10 -37 0 -65 -4 -65 -10z"/>
<path d="M14130 14220 c0 -5 -7 -10 -15 -10 -8 0 -15 -4 -15 -10 0 -5 -7 -10
-15 -10 -8 0 -15 -9 -15 -20 0 -11 -4 -20 -10 -20 -6 0 -10 -27 -10 -60 0 -33
4 -60 10 -60 6 0 10 -7 10 -16 0 -18 23 -44 39 -44 6 0 11 -4 11 -10 0 -5 11
-10 24 -10 14 0 28 -4 31 -10 3 -5 17 -10 31 -10 13 0 24 5 24 10 0 6 11 10
25 10 14 0 25 5 25 10 0 6 5 10 11 10 16 0 39 26 39 44 0 9 5 16 10 16 6 0 10
27 10 60 0 33 -4 60 -10 60 -5 0 -10 9 -10 19 0 12 -12 25 -30 33 -16 7 -30
16 -30 20 0 5 -31 8 -70 8 -40 0 -70 -4 -70 -10z"/>
<path d="M4170 14160 c0 -5 -7 -10 -15 -10 -8 0 -15 -4 -15 -10 0 -5 -5 -10
-11 -10 -17 0 -38 -31 -39 -55 0 -12 -5 -26 -11 -32 -8 -8 -8 -17 0 -31 6 -11
11 -30 11 -41 0 -12 5 -21 10 -21 6 0 10 -7 10 -16 0 -9 9 -18 20 -21 11 -3
20 -9 20 -14 0 -5 9 -9 20 -9 11 0 20 -4 20 -10 0 -5 18 -10 40 -10 22 0 40 5
40 10 0 6 7 10 16 10 9 0 31 15 50 34 31 31 34 39 34 93 0 62 -17 113 -37 113
-7 0 -13 5 -13 10 0 6 -7 10 -15 10 -8 0 -15 5 -15 10 0 6 -27 10 -60 10 -33
0 -60 -4 -60 -10z"/>
<path d="M820 14140 c0 -5 -9 -10 -20 -10 -11 0 -20 -4 -20 -10 0 -5 -6 -10
-12 -10 -13 0 -38 -44 -38 -67 0 -7 -4 -13 -10 -13 -5 0 -10 -13 -10 -30 0
-16 5 -30 10 -30 6 0 10 -12 10 -26 0 -27 43 -74 68 -74 6 0 12 -4 12 -10 0
-5 25 -10 55 -10 30 0 55 3 55 8 0 4 14 13 31 21 18 8 34 22 36 32 3 11 9 19
14 19 5 0 9 29 9 65 0 62 -2 68 -35 100 -19 19 -41 35 -50 35 -8 0 -15 5 -15
10 0 6 -20 10 -45 10 -25 0 -45 -4 -45 -10z"/>
<path d="M11085 14140 c-3 -5 -17 -10 -31 -10 -13 0 -24 -4 -24 -10 0 -5 -6
-10 -14 -10 -8 0 -18 -9 -21 -20 -3 -11 -11 -20 -16 -20 -5 0 -9 -9 -9 -20 0
-11 -4 -20 -10 -20 -5 0 -10 -18 -10 -40 0 -22 5 -40 10 -40 6 0 10 -7 10 -15
0 -18 43 -65 60 -65 5 0 10 -4 10 -10 0 -6 28 -10 65 -10 36 0 65 3 65 8 0 4
14 13 30 20 18 8 30 21 30 33 0 10 5 19 10 19 14 0 12 106 -2 132 -18 31 -35
48 -47 48 -6 0 -11 5 -11 10 0 6 -11 10 -25 10 -14 0 -25 5 -25 10 0 6 -9 10
-19 10 -11 0 -23 -4 -26 -10z"/>
<path d="M12920 14140 c0 -5 -9 -10 -21 -10 -24 0 -89 -61 -89 -83 0 -9 -4
-19 -10 -22 -5 -3 -10 -17 -10 -31 0 -13 5 -24 10 -24 6 0 10 -11 10 -25 0
-26 28 -59 68 -82 23 -14 132 -18 132 -5 0 4 12 13 28 19 36 17 52 55 52 125
0 54 -3 62 -35 93 -19 19 -43 35 -55 35 -11 0 -20 5 -20 10 0 6 -13 10 -30 10
-16 0 -30 -4 -30 -10z"/>
<path d="M2200 14120 c0 -5 -9 -10 -20 -10 -11 0 -20 -4 -20 -10 0 -5 -5 -10
-11 -10 -19 0 -39 -28 -39 -54 0 -14 -4 -26 -10 -26 -14 0 -13 -36 3 -79 13
-40 30 -61 46 -61 6 0 11 -4 11 -10 0 -5 7 -10 15 -10 8 0 15 -4 15 -10 0 -5
25 -10 55 -10 30 0 55 5 55 10 0 6 5 10 11 10 6 0 26 15 45 34 31 31 34 39 34
95 0 57 -3 64 -33 94 -18 18 -43 38 -55 45 -26 14 -102 16 -102 2z"/>
<path d="M3610 13980 c0 -5 -7 -10 -15 -10 -8 0 -15 -4 -15 -10 0 -5 -7 -10
-15 -10 -8 0 -15 -9 -15 -20 0 -11 -4 -20 -10 -20 -6 0 -10 -27 -10 -60 0 -33
4 -60 10 -60 6 0 10 -9 10 -20 0 -11 7 -20 15 -20 8 0 15 -4 15 -10 0 -5 7
-10 15 -10 8 0 15 -4 15 -10 0 -6 28 -10 65 -10 37 0 65 4 65 10 0 6 5 10 10
10 21 0 60 49 60 75 0 14 5 25 10 25 6 0 10 9 10 20 0 11 -4 20 -10 20 -5 0
-10 11 -10 25 0 26 -39 75 -60 75 -5 0 -10 5 -10 10 0 6 -28 10 -65 10 -37 0
-65 -4 -65 -10z"/>
<path d="M7390 13982 c0 -4 -13 -13 -30 -20 -18 -8 -30 -21 -30 -33 0 -10 -4
-19 -10 -19 -6 0 -10 -27 -10 -60 0 -33 4 -60 10 -60 6 0 10 -9 10 -19 0 -12
12 -25 30 -33 17 -7 30 -16 30 -20 0 -13 109 -9 132 5 57 32 68 52 68 127 0
62 -3 74 -25 95 -13 14 -29 25 -35 25 -5 0 -10 5 -10 10 0 6 -28 10 -65 10
-36 0 -65 -3 -65 -8z"/>
<path d="M7980 13980 c0 -5 -5 -10 -10 -10 -6 0 -26 -16 -45 -35 -32 -32 -35
-39 -35 -95 0 -51 4 -65 25 -85 13 -14 29 -25 35 -25 5 0 10 -4 10 -10 0 -5
11 -10 25 -10 14 0 25 -4 25 -10 0 -5 9 -10 20 -10 11 0 20 5 20 10 0 6 11 10
25 10 16 0 39 13 60 35 33 32 35 38 35 100 0 37 -4 65 -10 65 -5 0 -10 9 -10
20 0 11 -7 20 -15 20 -8 0 -15 5 -15 10 0 6 -9 10 -20 10 -11 0 -20 5 -20 10
0 6 -22 10 -50 10 -27 0 -50 -4 -50 -10z"/>
<path d="M6810 13960 c0 -5 -7 -10 -15 -10 -8 0 -15 -4 -15 -10 0 -5 -7 -10
-15 -10 -8 0 -15 -9 -15 -20 0 -11 -4 -20 -10 -20 -14 0 -13 -106 2 -133 15
-28 34 -47 47 -47 6 0 11 -4 11 -10 0 -6 30 -10 70 -10 40 0 70 4 70 10 0 6 5
10 10 10 6 0 22 11 35 25 22 21 25 33 25 92 0 57 -4 72 -24 96 -13 15 -31 27
-40 27 -9 0 -16 5 -16 10 0 6 -27 10 -60 10 -33 0 -60 -4 -60 -10z"/>
<path d="M11645 13960 c-3 -5 -15 -10 -26 -10 -36 0 -89 -38 -89 -64 0 -9 -4
-16 -10 -16 -5 0 -10 -25 -10 -55 0 -50 3 -59 35 -90 19 -19 39 -35 45 -35 5
0 10 -4 10 -10 0 -5 25 -10 55 -10 30 0 55 5 55 10 0 6 7 10 15 10 22 0 65 45
65 69 0 11 5 23 10 26 6 3 10 19 10 36 0 16 -4 29 -10 29 -5 0 -10 7 -10 16 0
26 -65 84 -94 84 -14 0 -26 5 -26 10 0 6 -4 10 -9 10 -6 0 -13 -4 -16 -10z"/>
<path d="M8550 13940 c0 -5 -7 -10 -15 -10 -8 0 -15 -4 -15 -10 0 -5 -7 -10
-15 -10 -8 0 -15 -9 -15 -20 0 -11 -4 -20 -10 -20 -6 0 -10 -27 -10 -60 0 -33
4 -60 10 -60 6 0 10 -7 10 -16 0 -17 14 -32 48 -51 26 -15 142 -17 142 -3 0 6
5 10 10 10 6 0 22 11 35 25 22 21 25 33 25 95 0 62 -3 74 -25 95 -13 14 -31
25 -40 25 -8 0 -15 5 -15 10 0 6 -27 10 -60 10 -33 0 -60 -4 -60 -10z"/>
<path d="M14690 13940 c0 -5 -13 -10 -30 -10 -16 0 -30 -4 -30 -10 0 -5 -6
-10 -14 -10 -8 0 -18 -9 -21 -20 -3 -11 -11 -20 -16 -20 -5 0 -9 -9 -9 -20 0
-11 -4 -20 -10 -20 -5 0 -10 -13 -10 -30 0 -16 5 -30 10 -30 6 0 10 -12 10
-26 0 -26 20 -54 39 -54 6 0 11 -4 11 -10 0 -5 9 -10 20 -10 11 0 20 -4 20
-10 0 -5 15 -10 33 -10 34 0 87 20 87 33 0 4 5 7 11 7 16 0 39 26 39 44 0 9 5
16 10 16 16 0 10 83 -9 115 -9 17 -27 34 -39 40 -12 5 -22 13 -22 17 0 5 -11
8 -24 8 -14 0 -28 5 -31 10 -3 6 -10 10 -16 10 -5 0 -9 -4 -9 -10z"/>
<path d="M6280 13920 c0 -5 -13 -10 -30 -10 -16 0 -30 -4 -30 -10 0 -5 -5 -10
-11 -10 -16 0 -39 -26 -39 -44 0 -9 -4 -16 -10 -16 -5 0 -10 -25 -10 -55 0
-50 3 -59 35 -90 19 -19 41 -35 50 -35 8 0 15 -4 15 -10 0 -5 20 -10 45 -10
25 0 45 3 45 8 0 4 14 13 31 21 18 8 34 22 36 32 3 11 9 19 14 19 5 0 9 29 9
65 0 62 -2 68 -35 100 -21 21 -44 35 -59 35 -14 0 -28 5 -31 10 -3 6 -10 10
-16 10 -5 0 -9 -4 -9 -10z"/>
<path d="M9140 13880 c0 -5 -7 -10 -15 -10 -8 0 -15 -4 -15 -9 0 -5 -9 -11
-20 -14 -11 -3 -20 -12 -20 -21 0 -9 -4 -16 -10 -16 -6 0 -10 -28 -10 -65 0
-57 3 -69 25 -90 13 -14 29 -25 35 -25 5 0 10 -4 10 -10 0 -6 30 -10 70 -10
40 0 70 4 70 10 0 6 5 10 11 10 30 0 59 60 59 120 0 44 -4 55 -35 85 -19 19
-39 35 -45 35 -5 0 -10 5 -10 10 0 6 -22 10 -50 10 -27 0 -50 -4 -50 -10z"/>
<path d="M13430 13880 c0 -5 -7 -10 -15 -10 -9 0 -31 -16 -50 -35 -32 -32 -35
-39 -35 -95 0 -51 4 -65 25 -85 13 -14 29 -25 35 -25 5 0 10 -4 10 -10 0 -5
13 -10 29 -10 16 0 32 -6 35 -12 5 -10 7 -10 12 0 3 6 19 12 35 12 16 0 29 5
29 10 0 6 5 10 10 10 6 0 22 11 35 25 21 20 25 34 25 86 0 56 -3 64 -33 93
-18 17 -42 37 -55 44 -26 14 -92 16 -92 2z"/>
<path d="M1670 13860 c0 -5 -7 -10 -15 -10 -25 0 -65 -46 -65 -75 0 -14 -4
-25 -10 -25 -5 0 -10 -11 -10 -24 0 -14 5 -28 10 -31 6 -3 10 -13 10 -22 0 -8
17 -31 37 -49 34 -31 42 -34 100 -34 35 0 63 4 63 10 0 6 6 10 13 10 24 1 67
76 67 119 0 23 -4 41 -10 41 -5 0 -10 7 -10 15 0 18 -43 65 -60 65 -5 0 -10 5
-10 10 0 6 -25 10 -55 10 -30 0 -55 -4 -55 -10z"/>
<path d="M350 13840 c0 -5 -10 -10 -23 -10 -13 0 -40 -15 -60 -34 -35 -32 -37
-37 -37 -95 0 -57 3 -64 35 -96 19 -19 43 -35 55 -35 11 0 20 -4 20 -10 0 -5
11 -10 24 -10 14 0 28 5 31 10 3 6 15 10 26 10 10 0 19 5 19 10 0 6 5 10 11
10 27 0 59 59 59 110 0 51 -32 110 -59 110 -6 0 -11 5 -11 10 0 6 -11 10 -25
10 -14 0 -25 5 -25 10 0 6 -9 10 -20 10 -11 0 -20 -4 -20 -10z"/>
<path d="M5650 13820 c0 -5 -5 -10 -11 -10 -16 0 -48 -42 -49 -62 0 -10 -4
-18 -10 -18 -5 0 -10 -18 -10 -40 0 -22 5 -40 10 -40 6 0 10 -7 10 -16 0 -18
23 -44 39 -44 6 0 11 -4 11 -10 0 -5 9 -10 20 -10 11 0 20 -4 20 -10 0 -5 18
-10 40 -10 22 0 40 5 40 10 0 6 9 10 20 10 11 0 20 5 20 10 0 6 6 10 13 10 6
0 18 15 25 33 7 17 18 40 23 51 7 13 7 22 0 29 -6 6 -11 21 -11 34 0 14 -15
39 -35 58 -32 33 -38 35 -100 35 -37 0 -65 -4 -65 -10z"/>
<path d="M3070 13782 c0 -4 -13 -13 -30 -20 -18 -8 -30 -21 -30 -33 0 -10 -4
-19 -10 -19 -6 0 -10 -27 -10 -60 0 -33 4 -60 10 -60 6 0 10 -9 10 -20 0 -11
7 -20 15 -20 8 0 15 -3 15 -7 0 -5 12 -14 27 -20 32 -15 113 -17 113 -3 0 6 5
10 10 10 6 0 26 16 45 35 32 31 35 40 35 90 0 30 -4 55 -10 55 -5 0 -10 9 -10
20 0 11 -7 20 -15 20 -8 0 -15 5 -15 10 0 6 -7 10 -15 10 -8 0 -15 5 -15 10 0
6 -27 10 -60 10 -33 0 -60 -3 -60 -8z"/>
<path d="M9700 13780 c0 -5 -5 -10 -10 -10 -21 0 -60 -49 -60 -75 0 -14 -4
-25 -10 -25 -5 0 -10 -9 -10 -20 0 -11 5 -20 10 -20 6 0 10 -11 10 -25 0 -29
40 -75 65 -75 8 0 15 -4 15 -10 0 -5 23 -10 50 -10 28 0 50 5 50 10 0 6 7 10
15 10 20 0 65 45 65 65 0 8 5 15 10 15 6 0 10 18 10 40 0 22 -4 40 -10 40 -5
0 -10 7 -10 15 0 18 -43 65 -60 65 -5 0 -10 5 -10 10 0 6 -27 10 -60 10 -33 0
-60 -4 -60 -10z"/>
<path d="M12150 13740 c0 -5 -7 -10 -15 -10 -25 0 -65 -46 -65 -75 0 -14 -4
-25 -10 -25 -5 0 -10 -9 -10 -20 0 -11 5 -20 10 -20 6 0 10 -11 10 -25 0 -29
40 -75 65 -75 8 0 15 -4 15 -10 0 -5 23 -10 50 -10 28 0 50 5 50 10 0 6 6 10
13 10 24 0 67 47 67 74 0 14 5 26 10 26 6 0 10 9 10 20 0 11 -4 20 -10 20 -5
0 -10 11 -10 25 0 29 -40 75 -65 75 -8 0 -15 5 -15 10 0 6 -22 10 -50 10 -27
0 -50 -4 -50 -10z"/>
<path d="M5100 13720 c0 -5 -7 -10 -15 -10 -8 0 -15 -4 -15 -9 0 -5 -9 -11
-20 -14 -11 -3 -20 -12 -20 -21 0 -9 -4 -16 -10 -16 -6 0 -10 -27 -10 -60 0
-33 4 -60 10 -60 6 0 10 -9 10 -19 0 -12 12 -25 30 -33 17 -7 30 -16 30 -20 0
-5 25 -8 55 -8 30 0 55 5 55 10 0 6 6 10 13 10 6 0 27 16 45 35 49 55 44 120
-15 182 -12 13 -29 23 -38 23 -8 0 -15 5 -15 10 0 6 -20 10 -45 10 -25 0 -45
-4 -45 -10z"/>
<path d="M10280 13660 c0 -5 -5 -10 -10 -10 -6 0 -26 -16 -45 -35 -31 -30 -35
-41 -35 -85 0 -44 4 -55 35 -85 19 -19 39 -35 45 -35 5 0 10 -4 10 -10 0 -14
76 -12 102 3 56 31 88 81 88 135 0 29 -8 47 -34 75 -18 20 -39 37 -45 37 -6 0
-11 5 -11 10 0 6 -22 10 -50 10 -27 0 -50 -4 -50 -10z"/>
<path d="M13940 13600 c0 -5 -9 -10 -20 -10 -11 0 -20 -4 -20 -10 0 -5 -6 -10
-12 -10 -21 0 -38 -50 -38 -113 0 -57 14 -87 39 -87 6 0 11 -4 11 -10 0 -5 7
-10 15 -10 8 0 15 -4 15 -10 0 -5 23 -10 50 -10 28 0 50 5 50 10 0 6 6 10 13
10 24 0 67 47 67 74 0 14 5 26 10 26 6 0 10 9 10 20 0 11 -4 20 -10 20 -5 0
-10 12 -10 26 0 27 -43 74 -67 74 -7 0 -13 5 -13 10 0 6 -20 10 -45 10 -25 0
-45 -4 -45 -10z"/>
<path d="M1160 13580 c0 -5 -5 -10 -10 -10 -6 0 -26 -16 -45 -35 -53 -52 -48
-119 12 -182 12 -13 29 -23 38 -23 8 0 15 -4 15 -10 0 -14 66 -12 92 3 12 6
37 26 55 44 29 28 33 39 33 84 0 45 -4 55 -34 85 -19 19 -39 34 -45 34 -6 0
-11 5 -11 10 0 6 -22 10 -50 10 -27 0 -50 -4 -50 -10z"/>
<path d="M4540 13580 c0 -5 -9 -10 -20 -10 -11 0 -20 -4 -20 -10 0 -5 -7 -10
-15 -10 -8 0 -15 -9 -15 -20 0 -11 -4 -20 -10 -20 -6 0 -10 -27 -10 -60 0 -33
4 -60 10 -60 6 0 10 -6 10 -13 0 -16 36 -47 55 -47 8 0 15 -4 15 -10 0 -5 18
-10 40 -10 22 0 40 5 40 10 0 6 9 10 20 10 11 0 20 5 20 10 0 6 5 10 11 10 27
0 39 30 39 101 0 66 -2 74 -27 95 -16 13 -34 24 -40 24 -7 0 -13 5 -13 10 0 6
-20 10 -45 10 -25 0 -45 -4 -45 -10z"/>
<path d="M2560 13560 c0 -5 -9 -10 -20 -10 -11 0 -20 -4 -20 -10 0 -5 -5 -10
-11 -10 -16 0 -39 -26 -39 -44 0 -9 -4 -16 -10 -16 -5 0 -10 -18 -10 -40 0
-22 5 -40 10 -40 6 0 10 -7 10 -15 0 -18 43 -65 60 -65 5 0 10 -4 10 -10 0 -5
23 -10 50 -10 28 0 50 3 50 8 0 4 14 13 31 21 18 8 34 22 36 32 3 11 9 19 14
19 5 0 9 24 9 53 0 46 -4 58 -34 90 -18 20 -43 37 -55 37 -11 0 -21 5 -21 10
0 6 -13 10 -30 10 -16 0 -30 -4 -30 -10z"/>
<path d="M10820 13500 c0 -5 -5 -10 -11 -10 -16 0 -39 -26 -39 -44 0 -9 -4
-16 -10 -16 -5 0 -10 -22 -10 -50 0 -27 5 -50 10 -50 6 0 10 -9 10 -19 0 -12
12 -25 30 -33 17 -7 30 -16 30 -20 0 -5 27 -8 60 -8 33 0 60 4 60 10 0 6 7 10
15 10 8 0 15 5 15 10 0 6 7 10 15 10 8 0 15 9 15 20 0 11 5 20 10 20 6 0 10
23 10 50 0 28 -4 50 -10 50 -5 0 -10 7 -10 16 0 17 -14 32 -48 52 -26 14 -142
16 -142 2z"/>
<path d="M12670 13500 c0 -5 -7 -10 -16 -10 -8 0 -22 -6 -30 -14 -8 -8 -14
-22 -14 -30 0 -9 -4 -16 -10 -16 -5 0 -10 -18 -10 -39 0 -22 5 -43 10 -46 6
-3 10 -14 10 -23 0 -18 33 -52 50 -52 6 0 10 -4 10 -10 0 -6 27 -10 60 -10 33
0 60 3 60 8 0 4 14 13 30 20 18 8 30 21 30 33 0 10 5 19 10 19 6 0 10 23 10
50 0 28 -4 50 -10 50 -5 0 -10 7 -10 16 0 18 -23 44 -39 44 -6 0 -11 5 -11 10
0 6 -28 10 -65 10 -37 0 -65 -4 -65 -10z"/>
<path d="M4010 13420 c0 -5 -11 -10 -24 -10 -14 0 -39 -15 -60 -36 -32 -32
-36 -41 -36 -90 0 -30 5 -54 10 -54 6 0 10 -6 10 -13 0 -16 36 -47 55 -47 8 0
15 -4 15 -10 0 -5 20 -10 45 -10 25 0 45 5 45 10 0 6 7 10 15 10 25 0 65 46
65 75 0 14 5 25 10 25 6 0 10 9 10 20 0 11 -4 20 -10 20 -5 0 -10 10 -10 23
-1 25 -22 57 -39 57 -6 0 -11 5 -11 10 0 6 -13 10 -30 10 -16 0 -30 5 -30 10
0 6 -7 10 -15 10 -8 0 -15 -4 -15 -10z"/>
<path d="M7180 13320 c0 -5 -5 -10 -10 -10 -6 0 -22 -11 -36 -26 -22 -21 -26
-35 -27 -84 -2 -56 0 -60 38 -94 34 -32 45 -36 92 -36 29 0 53 3 53 8 0 4 14
13 30 20 18 8 30 21 30 33 0 10 5 19 10 19 6 0 10 23 10 50 0 28 -4 50 -10 50
-5 0 -10 6 -10 13 0 14 -35 47 -50 47 -6 0 -10 5 -10 10 0 6 -25 10 -55 10
-30 0 -55 -4 -55 -10z"/>
<path d="M7723 13295 c-30 -30 -33 -39 -33 -95 0 -64 13 -86 68 -117 26 -15
102 -17 102 -3 0 6 6 10 13 10 8 0 28 16 45 35 26 28 32 43 32 80 0 25 -4 45
-10 45 -5 0 -10 7 -10 16 0 18 -23 44 -39 44 -6 0 -11 5 -11 10 0 6 -27 10
-62 10 -58 -1 -66 -3 -95 -35z"/>
<path d="M11380 13320 c0 -5 -5 -10 -10 -10 -6 0 -22 -11 -35 -25 -21 -20 -25
-34 -25 -80 0 -30 5 -55 10 -55 6 0 10 -9 10 -20 0 -11 7 -20 15 -20 8 0 15
-3 15 -7 0 -14 53 -33 92 -33 21 0 38 5 38 10 0 6 6 10 13 10 6 0 24 11 40 24
24 21 27 30 27 85 0 57 -3 64 -35 96 -32 32 -39 35 -95 35 -33 0 -60 -4 -60
-10z"/>
<path d="M2020 13300 c0 -5 -5 -10 -10 -10 -17 0 -60 -47 -60 -65 0 -8 -4 -15
-10 -15 -16 0 -10 -62 9 -95 9 -16 27 -34 39 -40 12 -5 22 -13 22 -17 0 -5 25
-8 55 -8 30 0 55 5 55 10 0 6 5 10 10 10 6 0 22 11 35 25 21 20 25 34 25 85 0
64 -13 86 -68 118 -26 14 -102 16 -102 2z"/>
<path d="M8350 13300 c0 -5 -7 -10 -15 -10 -9 0 -27 -11 -40 -25 -21 -20 -25
-34 -25 -85 0 -51 4 -65 25 -85 13 -14 29 -25 35 -25 5 0 10 -4 10 -10 0 -5
25 -10 55 -10 30 0 55 3 55 8 0 4 14 13 30 20 18 8 30 21 30 33 0 10 5 19 10
19 14 0 13 66 -1 92 -15 28 -55 68 -69 68 -5 0 -10 5 -10 10 0 6 -20 10 -45
10 -25 0 -45 -4 -45 -10z"/>
<path d="M14450 13300 c0 -5 -9 -10 -20 -10 -11 0 -20 -4 -20 -9 0 -5 -9 -11
-20 -14 -11 -3 -20 -12 -20 -21 0 -9 -4 -16 -10 -16 -5 0 -10 -25 -10 -55 0
-50 3 -59 35 -90 32 -32 39 -35 95 -35 56 0 63 3 95 35 31 30 35 40 35 86 0
45 -4 55 -34 85 -19 19 -41 34 -50 34 -9 0 -16 5 -16 10 0 6 -13 10 -30 10
-16 0 -30 -4 -30 -10z"/>
<path d="M680 13280 c0 -5 -9 -10 -20 -10 -11 0 -20 -4 -20 -10 0 -5 -5 -10
-11 -10 -26 0 -39 -30 -39 -94 0 -37 4 -66 10 -66 6 0 10 -7 10 -16 0 -9 9
-18 20 -21 11 -3 20 -9 20 -14 0 -5 29 -9 65 -9 37 0 65 4 65 10 0 6 5 10 11
10 16 0 39 26 39 44 0 9 5 16 10 16 6 0 10 18 10 40 0 22 -4 40 -10 40 -5 0
-10 7 -10 15 0 20 -44 65 -64 65 -8 0 -18 5 -21 10 -3 6 -19 10 -36 10 -16 0
-29 -4 -29 -10z"/>
<path d="M6567 13256 c-35 -32 -37 -37 -37 -95 0 -52 4 -66 25 -86 13 -14 31
-25 40 -25 8 0 15 -4 15 -10 0 -5 20 -10 45 -10 25 0 45 5 45 10 0 6 5 10 10
10 13 0 50 38 68 68 14 26 16 92 2 92 -5 0 -10 9 -10 19 0 12 -12 25 -30 33
-16 7 -30 16 -30 20 0 5 -24 8 -53 8 -46 0 -58 -4 -90 -34z"/>
<path d="M8920 13240 c0 -5 -5 -10 -10 -10 -6 0 -23 -12 -37 -26 -22 -22 -26
-35 -26 -84 0 -49 4 -62 26 -84 14 -14 31 -26 37 -26 5 0 10 -4 10 -10 0 -5
23 -10 50 -10 28 0 50 5 50 10 0 6 5 10 10 10 17 0 60 47 60 65 0 8 5 15 10
15 6 0 10 14 10 30 0 17 -4 30 -10 30 -5 0 -10 8 -10 17 0 9 -16 32 -36 50
-31 28 -44 33 -85 33 -27 0 -49 -4 -49 -10z"/>
<path d="M13190 13240 c0 -5 -6 -10 -14 -10 -8 0 -18 -9 -21 -20 -3 -11 -11
-20 -16 -20 -5 0 -9 -30 -9 -66 0 -64 13 -94 39 -94 6 0 11 -4 11 -10 0 -5 9
-10 20 -10 11 0 20 -4 20 -10 0 -5 14 -10 30 -10 17 0 30 5 30 10 0 6 9 10 20
10 24 0 70 42 70 65 0 8 5 15 10 15 6 0 10 18 10 40 0 22 -4 40 -10 40 -5 0
-10 7 -10 16 0 18 -23 44 -39 44 -6 0 -11 5 -11 10 0 6 -28 10 -65 10 -37 0
-65 -4 -65 -10z"/>
<path d="M3450 13220 c0 -5 -7 -10 -15 -10 -23 0 -65 -30 -65 -46 0 -8 -4 -14
-10 -14 -5 0 -10 -25 -10 -56 0 -52 3 -59 37 -90 33 -30 43 -34 95 -34 32 0
58 4 58 10 0 6 5 10 11 10 16 0 39 26 39 44 0 9 5 16 10 16 6 0 10 19 10 43 0
35 -6 50 -34 80 -18 20 -43 37 -55 37 -11 0 -21 5 -21 10 0 6 -11 10 -25 10
-14 0 -25 -4 -25 -10z"/>
<path d="M6040 13220 c0 -5 -9 -10 -20 -10 -11 0 -20 -4 -20 -10 0 -5 -7 -10
-15 -10 -8 0 -15 -9 -15 -20 0 -11 -4 -20 -10 -20 -5 0 -10 -25 -10 -55 0 -46
4 -60 25 -80 13 -14 29 -25 35 -25 5 0 10 -4 10 -10 0 -5 25 -10 55 -10 30 0
55 3 55 8 0 4 14 13 30 20 18 8 30 21 30 33 0 10 5 19 10 19 6 0 10 20 10 45
0 39 -5 51 -35 80 -19 19 -39 35 -45 35 -5 0 -10 5 -10 10 0 6 -18 10 -40 10
-22 0 -40 -4 -40 -10z"/>
<path d="M9520 13160 c0 -5 -9 -10 -20 -10 -24 0 -70 -42 -70 -65 0 -8 -4 -15
-10 -15 -5 0 -10 -18 -10 -40 0 -22 5 -40 10 -40 6 0 10 -7 10 -16 0 -34 55
-64 118 -64 41 0 54 5 85 34 34 31 37 38 37 90 0 31 -4 56 -10 56 -5 0 -10 9
-10 20 0 11 -7 20 -15 20 -8 0 -15 5 -15 10 0 6 -9 10 -19 10 -11 0 -23 5 -26
10 -3 6 -17 10 -31 10 -13 0 -24 -4 -24 -10z"/>
<path d="M5460 13120 c0 -5 -8 -10 -18 -10 -23 0 -72 -76 -72 -112 0 -15 5
-28 10 -28 6 0 10 -7 10 -15 0 -17 33 -53 68 -72 26 -15 82 -17 82 -3 0 6 9
10 20 10 11 0 20 5 20 10 0 6 7 10 15 10 8 0 15 9 15 20 0 11 5 20 10 20 6 0
10 23 10 50 0 28 -4 50 -10 50 -5 0 -10 7 -10 16 0 20 -24 44 -44 44 -9 0 -16
5 -16 10 0 6 -20 10 -45 10 -25 0 -45 -4 -45 -10z"/>
<path d="M11940 13120 c0 -5 -5 -10 -10 -10 -17 0 -60 -47 -60 -65 0 -8 -4
-15 -10 -15 -5 0 -10 -13 -10 -30 0 -16 5 -30 10 -30 6 0 10 -7 10 -15 0 -18
43 -65 60 -65 5 0 10 -4 10 -10 0 -5 20 -10 45 -10 25 0 45 3 45 8 0 4 13 13
28 20 71 31 70 173 0 205 -16 6 -28 15 -28 19 0 5 -20 8 -45 8 -25 0 -45 -4
-45 -10z"/>
<path d="M10090 13040 c0 -5 -11 -10 -25 -10 -14 0 -25 -4 -25 -10 0 -5 -7
-10 -15 -10 -8 0 -15 -9 -15 -20 0 -11 -4 -20 -10 -20 -5 0 -10 -25 -10 -55 0
-46 4 -60 25 -80 13 -14 31 -25 40 -25 8 0 15 -4 15 -10 0 -5 20 -10 45 -10
25 0 45 5 45 10 0 6 5 10 10 10 6 0 22 11 35 25 21 20 25 34 25 86 0 55 -3 64
-27 85 -16 13 -36 24 -45 24 -10 0 -18 5 -18 10 0 6 -11 10 -25 10 -14 0 -25
-4 -25 -10z"/>
<path d="M1510 13020 c0 -5 -7 -10 -16 -10 -9 0 -27 -12 -40 -27 -19 -22 -24
-40 -24 -80 0 -29 5 -53 10 -53 6 0 10 -6 10 -14 0 -16 42 -46 65 -46 8 0 15
-4 15 -10 0 -5 11 -10 25 -10 14 0 25 5 25 10 0 6 8 10 18 10 28 0 67 42 82
89 11 34 12 45 2 49 -7 2 -12 10 -12 18 0 19 -40 64 -57 64 -7 0 -13 5 -13 10
0 6 -20 10 -45 10 -25 0 -45 -4 -45 -10z"/>
<path d="M4920 13000 c0 -5 -9 -10 -21 -10 -12 0 -36 -15 -55 -34 -29 -29 -34
-41 -34 -80 0 -25 5 -46 10 -46 6 0 10 -7 10 -16 0 -20 24 -44 44 -44 9 0 16
-4 16 -10 0 -14 76 -12 102 3 31 17 57 49 58 70 0 9 5 17 10 17 6 0 10 14 10
30 0 17 -4 30 -10 30 -5 0 -10 7 -10 15 0 22 -45 65 -69 65 -11 0 -23 5 -26
10 -3 6 -13 10 -21 10 -8 0 -14 -4 -14 -10z"/>
<path d="M2906 12992 c-18 -2 -43 -18 -63 -40 -27 -29 -33 -44 -33 -79 0 -24
5 -43 10 -43 6 0 10 -7 10 -16 0 -20 24 -44 44 -44 9 0 16 -4 16 -10 0 -5 23
-10 50 -10 28 0 50 3 50 8 0 4 14 13 30 20 18 8 30 21 30 33 0 10 5 19 10 19
6 0 10 18 10 40 0 22 -4 40 -10 40 -5 0 -10 7 -10 15 0 43 -72 76 -144 67z"/>
<path d="M13710 12962 c0 -4 -13 -13 -30 -20 -18 -8 -30 -21 -30 -32 0 -10 -4
-22 -10 -25 -5 -3 -10 -22 -10 -41 0 -19 5 -34 10 -34 6 0 10 -7 10 -16 0 -18
23 -44 39 -44 6 0 11 -4 11 -10 0 -6 27 -10 60 -10 33 0 60 4 60 10 0 6 5 10
11 10 16 0 39 26 39 44 0 9 5 16 10 16 6 0 10 18 10 40 0 22 -4 40 -10 40 -5
0 -10 7 -10 16 0 18 -23 44 -39 44 -6 0 -11 5 -11 10 0 6 -25 10 -55 10 -30 0
-55 -3 -55 -8z"/>
<path d="M14900 12960 c0 -5 -5 -10 -11 -10 -19 0 -39 -28 -39 -54 0 -14 -4
-26 -10 -26 -5 0 -10 -9 -10 -20 0 -11 5 -20 10 -20 6 0 10 -9 10 -20 0 -11 4
-20 9 -20 5 0 12 -8 15 -17 8 -23 51 -43 93 -43 l33 0 0 120 0 120 -50 0 c-27
0 -50 -4 -50 -10z"/>
<path d="M170 12941 c0 -5 -9 -11 -20 -14 -11 -3 -20 -12 -20 -21 0 -9 -4 -16
-10 -16 -5 0 -10 -25 -10 -55 0 -46 4 -60 25 -80 13 -14 29 -25 35 -25 5 0 10
-4 10 -10 0 -5 23 -10 50 -10 28 0 50 5 50 10 0 6 5 10 10 10 6 0 22 11 35 25
20 19 25 34 25 75 0 44 -4 55 -35 85 -31 32 -40 35 -90 35 -30 0 -55 -4 -55
-9z"/>
<path d="M10620 12880 c0 -5 -5 -10 -11 -10 -16 0 -39 -26 -39 -44 0 -9 -4
-16 -10 -16 -5 0 -10 -18 -10 -40 0 -22 5 -40 10 -40 6 0 10 -7 10 -16 0 -18
23 -44 39 -44 6 0 11 -4 11 -10 0 -5 23 -10 51 -10 45 0 55 4 85 34 31 31 34
40 34 90 0 31 -4 56 -9 56 -5 0 -13 9 -16 20 -3 11 -13 20 -21 20 -8 0 -14 5
-14 10 0 6 -25 10 -55 10 -30 0 -55 -4 -55 -10z"/>
<path d="M12470 12880 c0 -5 -7 -10 -16 -10 -8 0 -22 -6 -30 -14 -8 -8 -14
-22 -14 -30 0 -9 -4 -16 -10 -16 -5 0 -10 -18 -10 -40 0 -22 5 -40 10 -40 6 0
10 -7 10 -16 0 -18 23 -44 39 -44 6 0 11 -4 11 -10 0 -5 25 -10 55 -10 30 0
55 5 55 10 0 6 6 10 13 10 30 0 47 35 47 98 0 34 -4 62 -9 62 -5 0 -12 8 -15
18 -3 9 -18 23 -33 30 -32 14 -103 16 -103 2z"/>
<path d="M4360 12840 c0 -5 -10 -10 -21 -10 -12 0 -37 -17 -55 -37 -48 -52
-47 -100 1 -148 19 -19 41 -35 50 -35 8 0 15 -4 15 -10 0 -5 11 -10 25 -10 14
0 25 5 25 10 0 6 9 10 20 10 12 0 32 11 45 25 21 20 25 34 25 85 0 51 -4 65
-25 85 -13 14 -33 25 -45 25 -11 0 -20 5 -20 10 0 6 -9 10 -20 10 -11 0 -20
-4 -20 -10z"/>
<path d="M2370 12740 c0 -5 -7 -10 -16 -10 -20 0 -44 -24 -44 -44 0 -9 -4 -16
-10 -16 -5 0 -10 -19 -10 -42 0 -43 33 -98 59 -98 6 0 11 -4 11 -10 0 -5 23
-10 50 -10 28 0 50 5 50 10 0 6 5 10 10 10 6 0 22 11 35 25 20 19 25 34 25 75
0 41 -5 56 -25 75 -13 14 -29 25 -35 25 -5 0 -10 5 -10 10 0 6 -20 10 -45 10
-25 0 -45 -4 -45 -10z"/>
<path d="M1020 12720 c0 -5 -9 -10 -20 -10 -11 0 -20 -4 -20 -10 0 -5 -7 -10
-15 -10 -8 0 -15 -9 -15 -20 0 -11 -4 -20 -10 -20 -5 0 -10 -18 -10 -40 0 -22
5 -40 10 -40 6 0 10 -7 10 -16 0 -18 23 -44 39 -44 6 0 11 -4 11 -10 0 -5 25
-10 55 -10 30 0 55 5 55 10 0 6 6 10 14 10 8 0 18 9 21 20 3 11 11 20 16 20 5
0 9 25 9 55 0 58 -14 82 -68 113 -26 14 -82 16 -82 2z"/>
<path d="M11180 12700 c0 -5 -5 -10 -10 -10 -6 0 -22 -11 -35 -25 -20 -19 -25
-34 -25 -75 0 -30 6 -57 14 -65 40 -40 136 -72 136 -45 0 6 9 10 20 10 11 0
20 5 20 10 0 6 7 10 15 10 8 0 15 9 15 20 0 11 5 20 10 20 6 0 10 18 10 40 0
22 -4 40 -10 40 -5 0 -10 7 -10 16 0 18 -23 44 -39 44 -6 0 -11 5 -11 10 0 6
-22 10 -50 10 -27 0 -50 -4 -50 -10z"/>
<path d="M7000 12660 c0 -5 -9 -10 -20 -10 -22 0 -56 -30 -77 -68 -15 -26 -17
-72 -3 -72 6 0 10 -7 10 -15 0 -9 11 -27 25 -40 20 -21 34 -25 80 -25 30 0 55
5 55 10 0 6 9 10 20 10 13 0 20 7 20 20 0 11 5 20 10 20 6 0 10 24 10 53 -1
51 -16 87 -39 87 -6 0 -11 5 -11 10 0 6 -11 10 -25 10 -14 0 -25 5 -25 10 0 6
-7 10 -15 10 -8 0 -15 -4 -15 -10z"/>
<path d="M7518 12646 c-16 -13 -28 -31 -28 -40 0 -9 -4 -16 -10 -16 -5 0 -10
-13 -10 -30 0 -16 5 -30 10 -30 6 0 10 -7 10 -15 0 -9 11 -27 25 -41 21 -21
35 -25 83 -25 31 0 58 4 60 10 2 6 8 11 14 11 22 0 37 36 38 88 0 28 -4 52
-10 52 -5 0 -10 9 -10 20 0 11 -7 20 -15 20 -8 0 -15 5 -15 10 0 6 -26 10 -57
10 -47 0 -63 -5 -85 -24z"/>
<path d="M8155 12660 c-3 -5 -13 -10 -21 -10 -20 0 -64 -45 -64 -65 0 -8 -4
-15 -10 -15 -5 0 -10 -13 -10 -30 0 -16 5 -30 10 -30 6 0 10 -7 10 -16 0 -18
23 -44 39 -44 6 0 11 -4 11 -10 0 -5 25 -10 55 -10 30 0 55 5 55 10 0 6 7 10
16 10 9 0 18 9 21 20 3 11 9 20 14 20 5 0 9 25 9 56 0 49 -4 60 -27 80 -16 13
-36 24 -45 24 -10 0 -18 5 -18 10 0 6 -9 10 -19 10 -11 0 -23 -4 -26 -10z"/>
<path d="M14220 12660 c0 -5 -5 -10 -10 -10 -17 0 -60 -47 -60 -65 0 -8 -4
-15 -10 -15 -5 0 -10 -13 -10 -30 0 -16 5 -30 10 -30 6 0 10 -7 10 -16 0 -8 6
-22 14 -30 8 -8 22 -14 30 -14 9 0 16 -4 16 -10 0 -5 21 -10 46 -10 39 0 51 5
80 34 30 30 34 40 34 85 0 42 -5 57 -25 76 -13 14 -31 25 -40 25 -8 0 -15 5
-15 10 0 6 -16 10 -35 10 -19 0 -35 -4 -35 -10z"/>
<path d="M3743 12615 c-28 -30 -33 -42 -33 -85 0 -41 5 -56 25 -75 13 -14 31
-25 39 -25 8 0 18 -4 21 -10 3 -5 19 -10 36 -10 16 0 29 5 29 10 0 6 7 10 15
10 19 0 55 31 55 47 0 7 5 13 10 13 6 0 10 18 10 40 0 22 -4 40 -10 40 -5 0
-10 7 -10 16 0 18 -23 44 -39 44 -6 0 -11 5 -11 10 0 6 -24 10 -52 9 -47 0
-57 -4 -85 -34z"/>
<path d="M12990 12622 c0 -4 -13 -13 -30 -20 -18 -8 -30 -21 -30 -33 0 -10 -4
-19 -10 -19 -5 0 -10 -15 -10 -34 0 -19 5 -38 10 -41 6 -3 10 -15 10 -26 0
-10 7 -19 15 -19 8 0 15 -3 15 -7 0 -13 53 -33 87 -33 18 0 33 5 33 10 0 6 5
10 10 10 6 0 22 11 35 25 20 19 25 34 25 75 0 41 -5 56 -25 75 -13 14 -29 25
-35 25 -5 0 -10 5 -10 10 0 6 -20 10 -45 10 -25 0 -45 -3 -45 -8z"/>
<path d="M6390 12600 c0 -5 -7 -10 -16 -10 -20 0 -44 -24 -44 -44 0 -9 -4 -16
-10 -16 -5 0 -10 -13 -10 -29 0 -49 42 -111 74 -111 9 0 16 -4 16 -10 0 -14
56 -12 82 3 52 29 68 54 68 107 0 41 -5 56 -25 75 -13 14 -29 25 -35 25 -5 0
-10 5 -10 10 0 6 -20 10 -45 10 -25 0 -45 -4 -45 -10z"/>
<path d="M8700 12600 c0 -5 -5 -10 -11 -10 -16 0 -39 -26 -39 -44 0 -9 -4 -16
-10 -16 -5 0 -10 -18 -10 -40 0 -22 4 -40 9 -40 5 0 11 -8 13 -17 9 -33 128
-82 128 -53 0 6 9 10 20 10 11 0 20 5 20 10 0 6 5 10 11 10 25 0 39 30 39 84
0 31 -4 56 -9 56 -5 0 -13 9 -16 20 -3 11 -13 20 -21 20 -8 0 -14 5 -14 10 0
6 -25 10 -55 10 -30 0 -55 -4 -55 -10z"/>
<path d="M5820 12520 c0 -5 -5 -10 -10 -10 -6 0 -22 -11 -35 -25 -20 -19 -25
-34 -25 -75 0 -41 5 -56 25 -75 13 -14 29 -25 35 -25 5 0 10 -4 10 -10 0 -5
18 -10 40 -10 22 0 40 5 40 10 0 6 5 10 10 10 6 0 22 11 35 25 20 19 25 34 25
75 0 41 -5 56 -25 75 -13 14 -29 25 -35 25 -5 0 -10 5 -10 10 0 6 -18 10 -40
10 -22 0 -40 -4 -40 -10z"/>
<path d="M9280 12520 c0 -5 -5 -10 -10 -10 -6 0 -22 -11 -35 -25 -19 -18 -25
-35 -25 -70 0 -25 5 -45 10 -45 6 0 10 -9 10 -20 0 -11 7 -20 15 -20 8 0 15
-4 15 -10 0 -5 11 -10 25 -10 14 0 25 -4 25 -10 0 -5 9 -10 20 -10 11 0 20 5
20 10 0 6 9 10 20 10 11 0 20 5 20 10 0 6 7 10 16 10 9 0 18 9 21 20 3 11 9
20 14 20 5 0 9 18 9 40 0 22 -4 40 -10 40 -5 0 -10 7 -10 16 0 18 -23 44 -39
44 -6 0 -11 5 -11 10 0 6 -22 10 -50 10 -27 0 -50 -4 -50 -10z"/>
<path d="M11740 12500 c0 -5 -9 -10 -20 -10 -11 0 -20 -4 -20 -10 0 -5 -7 -10
-15 -10 -8 0 -15 -9 -15 -20 0 -11 -4 -20 -10 -20 -5 0 -10 -18 -10 -40 0 -22
5 -40 10 -40 6 0 10 -9 10 -19 0 -12 12 -25 30 -33 17 -7 30 -16 30 -20 0 -5
18 -8 40 -8 22 0 40 3 40 8 0 4 14 13 30 20 18 8 30 21 30 33 0 10 5 19 10 19
6 0 10 18 10 40 0 22 -4 40 -10 40 -5 0 -10 9 -10 20 0 11 -7 20 -15 20 -8 0
-15 5 -15 10 0 6 -9 10 -20 10 -11 0 -20 5 -20 10 0 6 -13 10 -30 10 -16 0
-30 -4 -30 -10z"/>
<path d="M1850 12460 c0 -5 -6 -10 -14 -10 -24 0 -46 -47 -46 -100 0 -50 15
-80 39 -80 6 0 11 -4 11 -10 0 -6 27 -10 60 -10 33 0 60 4 60 10 0 6 5 10 11
10 25 0 39 30 39 84 0 31 -4 56 -9 56 -5 0 -13 9 -16 20 -3 11 -13 20 -21 20
-8 0 -14 5 -14 10 0 6 -22 10 -50 10 -27 0 -50 -4 -50 -10z"/>
<path d="M3230 12420 c0 -5 -6 -10 -14 -10 -8 0 -18 -9 -21 -20 -3 -11 -11
-20 -16 -20 -5 0 -9 -21 -9 -46 0 -39 5 -51 34 -80 30 -30 40 -34 85 -34 28 0
51 5 51 10 0 6 5 10 11 10 15 0 39 26 39 44 0 8 5 18 10 21 6 3 10 17 10 31 0
13 -4 24 -10 24 -5 0 -10 7 -10 16 0 18 -23 44 -39 44 -6 0 -11 5 -11 10 0 6
-25 10 -55 10 -30 0 -55 -4 -55 -10z"/>
<path d="M560 12400 c0 -5 -9 -10 -20 -10 -12 0 -36 -16 -55 -35 -27 -26 -35
-43 -35 -70 0 -19 5 -35 10 -35 6 0 10 -7 10 -16 0 -17 14 -32 48 -51 26 -15
102 -17 102 -3 0 6 5 10 11 10 16 0 39 26 39 44 0 9 5 16 10 16 6 0 10 18 10
40 0 22 -4 40 -10 40 -5 0 -10 6 -10 14 0 17 -43 46 -70 46 -11 0 -20 5 -20
10 0 6 -4 10 -10 10 -5 0 -10 -4 -10 -10z"/>
<path d="M5240 12400 c0 -5 -5 -10 -11 -10 -16 0 -39 -26 -39 -44 0 -9 -4 -16
-10 -16 -14 0 -12 -46 3 -72 30 -54 54 -68 112 -68 30 0 55 5 55 10 0 6 6 10
14 10 8 0 18 9 21 20 3 11 11 20 16 20 5 0 9 19 9 43 0 42 -33 97 -59 97 -6 0
-11 5 -11 10 0 6 -22 10 -50 10 -27 0 -50 -4 -50 -10z"/>
<path d="M9840 12400 c0 -5 -5 -10 -11 -10 -25 0 -39 -30 -39 -87 1 -61 16
-93 44 -93 9 0 16 -4 16 -10 0 -5 23 -10 50 -10 28 0 50 5 50 10 0 6 6 10 14
10 8 0 18 9 21 20 3 11 11 20 16 20 5 0 9 24 9 53 -1 51 -16 87 -39 87 -6 0
-11 5 -11 10 0 6 -27 10 -60 10 -33 0 -60 -4 -60 -10z"/>
<path d="M13525 12340 c-3 -5 -15 -10 -26 -10 -10 0 -19 -4 -19 -10 0 -5 -5
-10 -11 -10 -24 0 -39 -30 -39 -80 0 -41 5 -56 25 -75 13 -14 31 -25 40 -25 8
0 15 -4 15 -10 0 -5 16 -10 35 -10 19 0 35 5 35 10 0 6 5 10 10 10 6 0 22 11
35 25 20 19 25 34 25 75 0 41 -5 56 -25 75 -13 14 -33 25 -45 25 -11 0 -20 5
-20 10 0 6 -6 10 -14 10 -8 0 -18 -4 -21 -10z"/>
<path d="M14680 12320 c0 -5 -5 -10 -11 -10 -25 0 -39 -30 -39 -88 0 -59 17
-92 48 -92 7 0 12 -4 12 -10 0 -5 19 -10 43 -10 35 0 50 6 80 34 32 30 37 39
37 80 0 25 -4 46 -9 46 -5 0 -11 9 -14 20 -3 11 -12 20 -21 20 -9 0 -16 5 -16
10 0 6 -25 10 -55 10 -30 0 -55 -4 -55 -10z"/>
<path d="M4710 12260 c0 -5 -9 -10 -21 -10 -35 0 -79 -59 -79 -105 0 -26 59
-95 81 -95 8 0 21 -6 28 -12 11 -10 14 -10 18 0 3 6 13 12 24 12 24 0 69 43
69 65 0 8 5 15 10 15 6 0 10 9 10 20 0 11 -4 20 -10 20 -5 0 -10 7 -10 15 0
20 -45 65 -65 65 -8 0 -15 5 -15 10 0 6 -9 10 -20 10 -11 0 -20 -4 -20 -10z"/>
<path d="M10387 12236 c-32 -30 -37 -39 -37 -80 0 -25 4 -46 9 -46 5 0 11 -9
14 -20 3 -11 12 -20 21 -20 9 0 16 -4 16 -10 0 -5 23 -10 50 -10 28 0 50 5 50
10 0 6 6 10 14 10 8 0 18 9 21 20 3 11 11 20 16 20 5 0 9 21 9 46 0 41 -5 50
-37 80 -28 26 -46 34 -73 34 -27 0 -45 -8 -73 -34z"/>
<path d="M12260 12260 c0 -5 -5 -10 -10 -10 -6 0 -22 -11 -35 -25 -19 -18 -25
-35 -25 -70 0 -25 5 -45 10 -45 6 0 10 -9 10 -20 0 -11 7 -20 15 -20 8 0 15
-4 15 -10 0 -6 27 -10 60 -10 33 0 60 4 60 10 0 6 6 10 13 10 18 0 37 48 37
92 0 38 -34 88 -60 88 -5 0 -10 5 -10 10 0 6 -18 10 -40 10 -22 0 -40 -4 -40
-10z"/>
<path d="M2720 12180 c0 -5 -5 -10 -10 -10 -6 0 -22 -11 -35 -25 -19 -18 -25
-35 -25 -70 0 -25 4 -45 9 -45 5 0 11 -9 14 -20 3 -11 12 -20 21 -20 9 0 16
-4 16 -10 0 -5 20 -10 45 -10 25 0 45 5 45 10 0 6 5 10 10 10 6 0 22 11 35 25
19 18 25 35 25 65 0 30 -6 47 -25 65 -13 14 -29 25 -35 25 -5 0 -10 5 -10 10
0 6 -18 10 -40 10 -22 0 -40 -4 -40 -10z"/>
<path d="M1360 12160 c0 -5 -5 -10 -10 -10 -6 0 -22 -11 -35 -25 -39 -38 -35
-96 10 -140 28 -28 42 -35 75 -35 22 0 40 5 40 10 0 6 5 10 10 10 6 0 22 11
35 25 35 34 35 96 0 130 -13 14 -29 25 -35 25 -5 0 -10 5 -10 10 0 6 -18 10
-40 10 -22 0 -40 -4 -40 -10z"/>
<path d="M4160 12080 c0 -5 -9 -10 -20 -10 -12 0 -32 -11 -45 -25 -20 -19 -25
-34 -25 -72 1 -48 17 -83 39 -83 6 0 11 -4 11 -10 0 -5 23 -10 51 -10 46 0 55
4 85 37 24 26 34 46 34 70 0 18 -4 33 -10 33 -5 0 -10 9 -10 20 0 11 -7 20
-15 20 -8 0 -15 5 -15 10 0 6 -9 10 -19 10 -11 0 -23 5 -26 10 -3 6 -13 10
-21 10 -8 0 -14 -4 -14 -10z"/>
<path d="M10970 12080 c0 -5 -7 -10 -16 -10 -29 0 -44 -27 -44 -80 0 -41 5
-56 25 -75 13 -14 29 -25 35 -25 5 0 10 -4 10 -10 0 -5 14 -10 30 -10 17 0 30
5 30 10 0 6 8 10 18 10 28 1 47 22 62 69 11 34 12 45 2 49 -7 2 -12 10 -12 19
0 17 -24 43 -39 43 -6 0 -11 5 -11 10 0 6 -20 10 -45 10 -25 0 -45 -4 -45 -10z"/>
<path d="M60 12040 c0 -5 -5 -10 -11 -10 -7 0 -20 -10 -30 -22 -40 -45 -15
-158 35 -158 9 0 16 -4 16 -10 0 -5 16 -10 35 -10 19 0 35 5 35 10 0 6 5 10
10 10 6 0 22 11 35 25 39 38 35 96 -10 140 -28 28 -42 35 -75 35 -22 0 -40 -4
-40 -10z"/>
<path d="M13982 12016 c-12 -6 -25 -19 -28 -28 -3 -10 -10 -18 -15 -18 -5 0
-9 -22 -9 -50 0 -27 4 -50 9 -50 5 0 12 -8 15 -17 11 -32 116 -62 116 -33 0 6
7 10 16 10 8 0 22 6 30 14 8 8 14 22 14 30 0 9 5 16 10 16 6 0 10 14 10 30 0
17 -4 30 -10 30 -5 0 -10 7 -10 16 0 8 -6 22 -14 30 -8 8 -22 14 -30 14 -9 0
-16 5 -16 10 0 13 -59 11 -88 -4z"/>
<path d="M7320 12000 c0 -5 -5 -10 -11 -10 -24 0 -39 -30 -39 -80 0 -50 15
-80 39 -80 6 0 11 -4 11 -10 0 -5 25 -10 55 -10 30 0 55 5 55 10 0 6 9 10 20
10 13 0 20 7 20 20 0 11 5 20 10 20 6 0 10 18 10 40 0 22 -4 40 -10 40 -5 0
-10 6 -10 14 0 24 -47 46 -100 46 -27 0 -50 -4 -50 -10z"/>
<path d="M7893 11996 c-13 -6 -23 -19 -23 -28 0 -10 -4 -18 -10 -18 -5 0 -10
-20 -10 -45 0 -51 32 -95 69 -95 11 0 21 -6 24 -12 3 -10 9 -10 26 0 11 6 28
12 36 12 8 0 15 5 15 10 0 6 7 10 15 10 8 0 15 9 15 20 0 11 5 20 10 20 6 0
10 16 10 35 0 27 -8 44 -35 70 -29 30 -41 35 -77 34 -24 -1 -53 -6 -65 -13z"/>
<path d="M12800 12000 c0 -5 -9 -10 -20 -10 -38 0 -70 -44 -70 -95 0 -25 5
-45 10 -45 6 0 10 -9 10 -20 0 -13 7 -20 20 -20 11 0 20 -4 20 -10 0 -5 21
-10 46 -10 39 0 51 5 80 34 26 26 34 42 34 70 0 20 -4 36 -10 36 -5 0 -10 9
-10 20 0 11 -7 20 -15 20 -8 0 -15 5 -15 10 0 6 -9 10 -20 10 -11 0 -20 5 -20
10 0 6 -9 10 -20 10 -11 0 -20 -4 -20 -10z"/>
<path d="M6756 11977 c-48 -29 -66 -56 -66 -97 0 -30 6 -47 25 -65 13 -14 29
-25 35 -25 5 0 10 -4 10 -10 0 -5 14 -10 30 -10 46 0 100 35 100 64 0 9 5 16
10 16 6 0 10 14 10 30 0 17 -4 30 -10 30 -5 0 -10 7 -10 16 0 20 -24 44 -44
44 -9 0 -16 5 -16 10 0 14 -51 12 -74 -3z"/>
<path d="M8473 11956 c-13 -6 -23 -19 -23 -28 0 -10 -4 -18 -10 -18 -5 0 -10
-21 -10 -46 0 -44 16 -74 39 -74 6 0 11 -4 11 -10 0 -5 23 -10 52 -10 47 0 55
4 85 36 31 34 45 84 23 84 -5 0 -10 7 -10 15 0 9 -11 27 -25 40 -19 19 -34 25
-67 24 -24 -1 -53 -6 -65 -13z"/>
<path d="M2163 11875 c-25 -26 -33 -44 -33 -70 0 -19 5 -35 10 -35 6 0 10 -7
10 -16 0 -9 9 -18 20 -21 11 -3 20 -9 20 -14 0 -5 25 -9 55 -9 30 0 55 5 55
10 0 6 7 10 15 10 8 0 15 9 15 20 0 11 5 20 10 20 6 0 10 18 10 40 0 22 -4 40
-10 40 -5 0 -10 9 -10 20 0 11 -7 20 -15 20 -8 0 -15 5 -15 10 0 6 -24 10 -52
9 -47 0 -57 -4 -85 -34z"/>
<path d="M6160 11900 c0 -5 -7 -10 -15 -10 -8 0 -15 -9 -15 -20 0 -11 -4 -20
-10 -20 -5 0 -10 -18 -10 -40 0 -22 5 -40 10 -40 6 0 10 -7 10 -16 0 -9 9 -18
20 -21 11 -3 20 -9 20 -14 0 -5 20 -9 45 -9 39 0 51 5 80 35 27 26 35 43 35
70 0 19 -4 35 -10 35 -5 0 -10 9 -10 20 0 11 -7 20 -15 20 -8 0 -15 5 -15 10
0 6 -27 10 -60 10 -33 0 -60 -4 -60 -10z"/>
<path d="M9095 11900 c-3 -5 -13 -10 -21 -10 -8 0 -26 -11 -39 -25 -45 -44
-30 -155 19 -155 9 0 16 -4 16 -10 0 -5 20 -10 45 -10 25 0 45 5 45 10 0 6 5
10 11 10 24 0 39 30 39 80 0 41 -5 56 -25 75 -13 14 -31 25 -40 25 -8 0 -15 5
-15 10 0 6 -6 10 -14 10 -8 0 -18 -4 -21 -10z"/>
<path d="M11540 11880 c0 -5 -9 -10 -20 -10 -36 0 -70 -44 -70 -90 0 -30 6
-47 25 -65 13 -14 29 -25 35 -25 5 0 10 -4 10 -10 0 -5 16 -10 35 -10 19 0 35
5 35 10 0 6 7 10 16 10 31 0 44 27 44 94 0 52 -3 66 -15 66 -8 0 -15 5 -15 10
0 6 -9 10 -19 10 -11 0 -23 5 -26 10 -3 6 -13 10 -21 10 -8 0 -14 -4 -14 -10z"/>
<path d="M3590 11861 c0 -5 -9 -11 -20 -14 -11 -3 -20 -12 -20 -21 0 -9 -4
-16 -10 -16 -5 0 -10 -21 -10 -46 0 -38 5 -51 28 -70 39 -34 113 -34 147 1 42
41 31 155 -14 155 -6 0 -11 5 -11 10 0 6 -20 10 -45 10 -25 0 -45 -4 -45 -9z"/>
<path d="M895 11840 c-3 -5 -13 -10 -21 -10 -8 0 -26 -11 -39 -25 -35 -34 -35
-96 0 -130 13 -14 29 -25 35 -25 5 0 10 -4 10 -10 0 -5 16 -10 35 -10 19 0 35
5 35 10 0 6 7 10 16 10 31 0 44 27 44 94 0 52 -3 66 -15 66 -8 0 -15 5 -15 10
0 6 -9 10 -20 10 -11 0 -20 5 -20 10 0 6 -9 10 -19 10 -11 0 -23 -4 -26 -10z"/>
<path d="M5573 11785 c-40 -42 -27 -155 16 -155 6 0 11 -4 11 -10 0 -5 20 -10
45 -10 25 0 45 5 45 10 0 6 8 10 18 10 22 0 42 44 42 93 0 37 -17 67 -39 67
-6 0 -11 5 -11 10 0 6 -24 10 -52 9 -43 0 -57 -5 -75 -24z"/>
<path d="M9613 11765 c-13 -13 -23 -31 -23 -40 0 -8 -4 -15 -10 -15 -22 0 -8
-48 24 -83 30 -33 39 -37 85 -37 28 0 51 5 51 10 0 6 7 10 15 10 8 0 15 9 15
20 0 11 5 20 10 20 6 0 10 18 10 40 0 22 -4 40 -10 40 -5 0 -10 7 -10 16 0 9
-9 18 -20 21 -11 3 -20 9 -20 14 0 5 -21 9 -47 8 -37 0 -53 -6 -70 -24z"/>
<path d="M13280 11700 c0 -5 -5 -10 -11 -10 -15 0 -39 -26 -39 -43 0 -9 -5
-17 -12 -19 -18 -6 -1 -55 31 -88 24 -26 36 -30 80 -30 28 0 51 5 51 10 0 6 7
10 15 10 8 0 15 9 15 20 0 11 5 20 10 20 6 0 10 15 10 33 0 32 -37 87 -59 87
-6 0 -11 5 -11 10 0 6 -18 10 -40 10 -22 0 -40 -4 -40 -10z"/>
<path d="M5065 11680 c-3 -5 -15 -10 -26 -10 -10 0 -19 -4 -19 -10 0 -5 -6
-10 -13 -10 -16 0 -39 -81 -26 -94 5 -6 9 -16 9 -24 0 -18 25 -42 44 -42 8 0
18 -4 21 -10 3 -5 17 -10 31 -10 13 0 24 5 24 10 0 6 7 10 16 10 20 0 44 24
44 44 0 9 5 16 10 16 6 0 10 14 10 30 0 17 -4 30 -10 30 -5 0 -10 7 -10 16 0
20 -28 43 -52 44 -10 0 -18 5 -18 10 0 6 -6 10 -14 10 -8 0 -18 -4 -21 -10z"/>
<path d="M14460 11680 c0 -5 -5 -10 -11 -10 -24 0 -39 -30 -39 -80 0 -50 15
-80 39 -80 6 0 11 -4 11 -10 0 -5 23 -10 50 -10 28 0 50 5 50 10 0 6 5 10 11
10 23 0 39 30 39 74 0 25 -4 46 -10 46 -5 0 -10 9 -10 20 0 13 -7 20 -20 20
-11 0 -20 5 -20 10 0 6 -20 10 -45 10 -25 0 -45 -4 -45 -10z"/>
<path d="M10210 11640 c0 -5 -7 -10 -16 -10 -29 0 -44 -27 -44 -81 0 -44 4
-55 28 -75 19 -17 39 -24 70 -24 23 0 42 5 42 10 0 6 9 10 20 10 13 0 20 7 20
20 0 11 5 20 10 20 6 0 10 16 10 35 0 35 -35 85 -60 85 -5 0 -10 5 -10 10 0 6
-16 10 -35 10 -19 0 -35 -4 -35 -10z"/>
<path d="M12065 11640 c-3 -5 -13 -10 -21 -10 -53 0 -73 -112 -29 -156 43 -43
155 -30 155 18 0 10 5 18 10 18 6 0 10 15 10 33 0 39 -38 87 -69 87 -11 0 -21
5 -21 10 0 6 -6 10 -14 10 -8 0 -18 -4 -21 -10z"/>
<path d="M3060 11620 c0 -5 -5 -10 -11 -10 -24 0 -39 -30 -39 -81 0 -44 4 -55
28 -75 42 -37 94 -33 137 11 43 42 47 84 10 120 -13 14 -29 25 -35 25 -5 0
-10 5 -10 10 0 6 -18 10 -40 10 -22 0 -40 -4 -40 -10z"/>
<path d="M1673 11585 c-40 -42 -27 -155 16 -155 6 0 11 -4 11 -10 0 -5 18 -10
40 -10 22 0 40 5 40 10 0 6 5 10 11 10 13 0 32 19 47 47 14 26 16 73 3 73 -5
0 -13 9 -16 20 -3 11 -13 20 -21 20 -8 0 -14 5 -14 10 0 6 -21 10 -47 9 -37 0
-53 -6 -70 -24z"/>
<path d="M4480 11500 c0 -5 -5 -10 -11 -10 -24 0 -39 -30 -39 -80 0 -53 15
-80 44 -80 9 0 16 -4 16 -10 0 -5 16 -10 35 -10 19 0 35 5 35 10 0 6 5 10 10
10 23 0 60 50 60 81 0 48 -56 99 -109 99 -23 0 -41 -4 -41 -10z"/>
<path d="M400 11480 c0 -5 -5 -10 -11 -10 -23 0 -39 -30 -39 -74 0 -25 5 -46
10 -46 6 0 10 -6 10 -14 0 -8 14 -22 32 -30 35 -18 78 -21 78 -6 0 6 5 10 10
10 25 0 60 50 60 85 0 19 -4 35 -10 35 -5 0 -10 9 -10 20 0 13 -7 20 -20 20
-11 0 -20 5 -20 10 0 6 -20 10 -45 10 -25 0 -45 -4 -45 -10z"/>
<path d="M10733 11445 c-13 -13 -23 -31 -23 -40 0 -8 -4 -15 -10 -15 -5 0 -10
-9 -10 -20 0 -11 5 -20 10 -20 6 0 10 -7 10 -16 0 -18 23 -44 39 -44 6 0 11
-4 11 -10 0 -5 16 -10 35 -10 19 0 35 5 35 10 0 6 7 10 16 10 29 0 44 27 44
81 0 44 -4 55 -27 75 -38 33 -99 32 -130 -1z"/>
<path d="M13770 11380 c0 -5 -9 -10 -20 -10 -13 0 -20 -7 -20 -20 0 -11 -4
-20 -10 -20 -5 0 -10 -18 -10 -40 0 -22 4 -40 9 -40 5 0 13 -9 16 -20 3 -11
15 -20 26 -20 10 0 19 -4 19 -10 0 -5 14 -10 30 -10 17 0 30 5 30 10 0 6 5 10
10 10 25 0 60 50 60 85 0 19 -4 35 -9 35 -5 0 -13 9 -16 20 -3 11 -13 20 -21
20 -8 0 -14 5 -14 10 0 6 -18 10 -40 10 -22 0 -40 -4 -40 -10z"/>
<path d="M7720 11360 c0 -5 -9 -10 -21 -10 -34 0 -49 -24 -49 -80 0 -67 30
-100 90 -100 22 0 40 5 40 10 0 6 5 10 11 10 25 0 39 30 39 84 0 43 -3 56 -15
56 -8 0 -15 5 -15 10 0 6 -9 10 -20 10 -11 0 -20 5 -20 10 0 6 -9 10 -20 10
-11 0 -20 -4 -20 -10z"/>
<path d="M12533 11345 c-18 -19 -23 -36 -23 -80 0 -42 3 -55 15 -55 8 0 15 -4
15 -10 0 -5 9 -10 20 -10 11 0 20 -4 20 -10 0 -5 9 -10 20 -10 11 0 20 5 20
10 0 6 9 10 20 10 11 0 20 5 20 10 0 6 7 10 15 10 12 0 15 13 15 55 0 46 -4
60 -25 80 -33 34 -100 34 -132 0z"/>
<path d="M2513 11325 c-32 -34 -31 -97 2 -130 19 -20 34 -25 75 -25 27 0 50 5
50 10 0 6 7 10 15 10 8 0 15 9 15 20 0 11 5 20 10 20 6 0 10 14 10 30 0 17 -4
30 -10 30 -5 0 -10 7 -10 16 0 27 -32 43 -85 43 -40 0 -55 -5 -72 -24z"/>
<path d="M7093 11325 c-18 -19 -23 -36 -23 -76 0 -54 16 -78 53 -79 9 0 17 -4
17 -10 0 -5 9 -10 20 -10 11 0 20 5 20 10 0 6 7 10 15 10 33 0 55 33 55 84 0
41 -4 52 -27 72 -38 33 -99 32 -130 -1z"/>
<path d="M8253 11305 c-34 -36 -33 -116 2 -139 13 -9 43 -16 65 -16 56 0 90
34 90 90 0 58 -34 90 -92 89 -32 0 -49 -6 -65 -24z"/>
<path d="M14930 11320 c0 -5 -9 -10 -20 -10 -13 0 -20 -7 -20 -20 0 -11 -4
-20 -10 -20 -5 0 -10 -16 -10 -35 0 -35 35 -85 60 -85 5 0 10 -4 10 -10 0 -16
47 -11 54 6 3 9 6 54 6 100 l0 84 -35 0 c-19 0 -35 -4 -35 -10z"/>
<path d="M3950 11300 c0 -5 -7 -10 -16 -10 -29 0 -44 -27 -44 -80 0 -53 15
-80 44 -80 9 0 16 -4 16 -10 0 -5 14 -10 30 -10 17 0 30 5 30 10 0 6 7 10 16
10 29 0 44 27 44 80 0 53 -15 80 -44 80 -9 0 -16 5 -16 10 0 6 -13 10 -30 10
-16 0 -30 -4 -30 -10z"/>
<path d="M6555 11300 c-3 -5 -13 -10 -21 -10 -29 0 -44 -27 -44 -80 0 -50 15
-80 39 -80 6 0 11 -4 11 -10 0 -14 56 -12 82 3 41 23 48 35 48 88 0 54 -16 78
-52 79 -10 0 -18 5 -18 10 0 6 -9 10 -19 10 -11 0 -23 -4 -26 -10z"/>
<path d="M1230 11280 c0 -5 -7 -10 -16 -10 -29 0 -44 -27 -44 -80 0 -53 15
-80 44 -80 9 0 16 -4 16 -10 0 -5 14 -10 30 -10 17 0 30 5 30 10 0 6 7 10 16
10 29 0 44 27 44 80 0 53 -15 80 -44 80 -9 0 -16 5 -16 10 0 6 -13 10 -30 10
-16 0 -30 -4 -30 -10z"/>
<path d="M8838 11246 c-16 -13 -28 -31 -28 -40 0 -9 -4 -16 -10 -16 -5 0 -10
-9 -10 -20 0 -11 5 -20 10 -20 6 0 10 -7 10 -16 0 -22 25 -44 49 -44 12 0 21
-4 21 -10 0 -5 7 -10 15 -10 8 0 15 5 15 10 0 6 7 10 15 10 9 0 27 11 40 25
40 39 30 135 -14 135 -6 0 -11 5 -11 10 0 20 -74 11 -102 -14z"/>
<path d="M11320 11260 c0 -5 -7 -10 -15 -10 -8 0 -24 -8 -35 -17 -37 -32 -22
-143 19 -143 6 0 11 -4 11 -10 0 -5 18 -10 40 -10 22 0 40 5 40 10 0 6 5 10
11 10 25 0 39 30 39 84 0 43 -3 56 -15 56 -8 0 -15 5 -15 10 0 6 -9 10 -20 10
-11 0 -20 5 -20 10 0 6 -9 10 -20 10 -11 0 -20 -4 -20 -10z"/>
<path d="M5933 11185 c-38 -40 -26 -135 16 -135 6 0 11 -4 11 -10 0 -20 74
-11 103 14 23 20 27 31 27 80 0 43 -3 56 -15 56 -8 0 -15 5 -15 10 0 6 -24 10
-52 9 -43 0 -57 -5 -75 -24z"/>
<path d="M9430 11161 c0 -5 -9 -11 -20 -14 -11 -3 -20 -12 -20 -21 0 -9 -4
-16 -10 -16 -5 0 -10 -16 -10 -35 0 -41 36 -85 69 -85 11 0 22 -6 25 -12 5
-10 7 -10 12 0 3 6 15 12 26 12 23 0 48 23 48 44 0 9 5 16 10 16 6 0 10 9 10
20 0 11 -4 20 -10 20 -5 0 -10 7 -10 16 0 18 -23 44 -39 44 -6 0 -11 5 -11 10
0 6 -16 10 -35 10 -19 0 -35 -4 -35 -9z"/>
<path d="M5373 11065 c-38 -40 -26 -135 16 -135 6 0 11 -4 11 -10 0 -14 51
-13 81 2 29 14 49 50 49 91 0 29 -19 57 -39 57 -6 0 -11 5 -11 10 0 6 -19 10
-42 9 -32 0 -49 -6 -65 -24z"/>
<path d="M3410 11060 c0 -5 -9 -10 -20 -10 -13 0 -20 -7 -20 -20 0 -11 -4 -20
-10 -20 -5 0 -10 -13 -10 -30 0 -16 5 -30 10 -30 6 0 10 -9 10 -20 0 -11 7
-20 15 -20 8 0 15 -4 15 -10 0 -14 71 -12 102 2 46 22 47 100 2 145 -24 24
-94 33 -94 13z"/>
<path d="M13033 11045 c-38 -40 -26 -135 16 -135 6 0 11 -4 11 -10 0 -5 18
-10 40 -10 22 0 40 5 40 10 0 6 5 10 11 10 22 0 39 30 39 71 0 33 -6 46 -27
65 -38 33 -99 32 -130 -1z"/>
<path d="M2013 11025 c-23 -24 -33 -95 -14 -95 5 0 12 -8 15 -17 10 -31 106
-61 106 -33 0 6 5 10 11 10 25 0 39 30 39 84 0 43 -3 56 -15 56 -8 0 -15 5
-15 10 0 6 -24 10 -52 9 -43 0 -57 -5 -75 -24z"/>
<path d="M14255 11040 c-3 -5 -13 -10 -21 -10 -28 0 -44 -27 -44 -77 0 -53 22
-83 60 -83 11 0 20 -5 20 -12 0 -9 3 -9 12 0 7 7 18 12 25 12 28 0 63 48 63
85 0 19 -4 35 -9 35 -5 0 -11 9 -14 20 -3 12 -14 20 -26 20 -12 0 -21 5 -21
10 0 6 -9 10 -19 10 -11 0 -23 -4 -26 -10z"/>
<path d="M9966 10994 c-34 -34 -49 -84 -26 -84 6 0 10 -9 10 -20 0 -11 7 -20
15 -20 8 0 15 -4 15 -10 0 -5 23 -10 50 -10 28 0 50 5 50 10 0 6 7 10 15 10 8
0 15 9 15 20 0 11 5 20 10 20 6 0 10 12 10 26 0 35 -64 94 -101 94 -18 0 -39
-12 -63 -36z"/>
<path d="M11803 10995 c-7 -8 -13 -21 -13 -30 0 -8 -4 -15 -10 -15 -5 0 -10
-11 -10 -25 0 -26 39 -75 60 -75 5 0 10 -4 10 -10 0 -5 14 -10 30 -10 17 0 30
5 30 10 0 6 5 10 11 10 16 0 39 26 39 44 0 9 5 16 10 16 6 0 10 9 10 20 0 11
-4 20 -10 20 -5 0 -10 7 -10 16 0 9 -8 23 -17 30 -24 18 -114 17 -130 -1z"/>
<path d="M733 10907 c-39 -38 -26 -137 16 -137 6 0 11 -4 11 -10 0 -5 13 -10
28 -10 38 0 102 59 102 94 0 14 -4 26 -10 26 -5 0 -10 9 -10 20 0 11 -7 20
-15 20 -8 0 -15 5 -15 10 0 6 -19 10 -42 9 -30 0 -50 -7 -65 -22z"/>
<path d="M4813 10905 c-41 -43 -26 -135 21 -135 9 0 16 -4 16 -10 0 -5 11 -10
25 -10 14 0 25 5 25 10 0 6 9 10 19 10 11 0 23 9 26 20 3 11 11 20 16 20 20 0
9 71 -16 95 -33 34 -100 34 -132 0z"/>
<path d="M10540 10840 c0 -5 -7 -10 -15 -10 -8 0 -15 -9 -15 -20 0 -11 -4 -20
-10 -20 -5 0 -10 -13 -10 -30 0 -16 4 -30 9 -30 5 0 13 -9 16 -20 3 -11 13
-20 21 -20 8 0 14 -4 14 -10 0 -5 14 -10 30 -10 17 0 30 5 30 10 0 6 7 10 16
10 27 0 44 27 44 71 0 54 -36 89 -92 89 -21 0 -38 -4 -38 -10z"/>
<path d="M2910 10800 c0 -5 -7 -10 -16 -10 -30 0 -44 -27 -44 -84 0 -43 3 -56
15 -56 8 0 15 -4 15 -10 0 -5 23 -10 50 -10 28 0 50 5 50 10 0 6 7 10 15 10
12 0 15 13 15 56 0 57 -14 84 -44 84 -9 0 -16 5 -16 10 0 6 -9 10 -20 10 -11
0 -20 -4 -20 -10z"/>
<path d="M12360 10740 c0 -5 -6 -10 -13 -10 -18 0 -57 -46 -57 -68 0 -27 23
-72 38 -72 6 0 12 -4 12 -10 0 -5 18 -10 40 -10 22 0 40 5 40 10 0 6 5 10 11
10 21 0 39 29 39 64 0 20 -4 36 -9 36 -5 0 -11 9 -14 20 -3 12 -14 20 -26 20
-12 0 -21 5 -21 10 0 6 -9 10 -20 10 -11 0 -20 -4 -20 -10z"/>
<path d="M13550 10740 c0 -5 -9 -10 -20 -10 -13 0 -20 -7 -20 -20 0 -11 -4
-20 -10 -20 -5 0 -10 -13 -10 -30 0 -16 5 -30 10 -30 6 0 10 -9 10 -20 0 -13
7 -20 20 -20 11 0 20 -4 20 -10 0 -5 14 -10 30 -10 17 0 30 5 30 10 0 6 7 10
16 10 27 0 44 27 44 70 0 42 -8 55 -48 78 -26 14 -72 16 -72 2z"/>
<path d="M4301 10732 c-39 -6 -51 -26 -51 -86 0 -43 3 -56 15 -56 8 0 15 -4
15 -10 0 -5 18 -10 40 -10 56 0 90 34 90 90 0 23 -6 47 -13 54 -15 15 -63 24
-96 18z"/>
<path d="M1560 10720 c0 -5 -7 -10 -15 -10 -8 0 -15 -9 -15 -20 0 -11 -4 -20
-10 -20 -5 0 -10 -11 -10 -25 0 -27 36 -75 57 -75 7 0 13 -4 13 -10 0 -5 9
-10 19 -10 11 0 23 5 26 10 3 6 13 10 22 10 24 0 42 31 43 73 0 37 -17 67 -39
67 -6 0 -11 5 -11 10 0 6 -18 10 -40 10 -22 0 -40 -4 -40 -10z"/>
<path d="M7490 10700 c0 -5 -9 -10 -20 -10 -13 0 -20 -7 -20 -20 0 -11 -4 -20
-10 -20 -5 0 -10 -10 -10 -23 0 -35 23 -77 43 -77 9 0 17 -4 17 -10 0 -5 14
-10 30 -10 17 0 30 5 30 10 0 6 9 10 20 10 13 0 20 7 20 20 0 11 5 20 10 20 6
0 10 14 10 30 0 17 -4 30 -10 30 -5 0 -10 9 -10 20 0 13 -7 20 -20 20 -11 0
-20 5 -20 10 0 6 -13 10 -30 10 -16 0 -30 -4 -30 -10z"/>
<path d="M8060 10680 c0 -5 -5 -10 -11 -10 -20 0 -39 -29 -39 -60 0 -54 72
-110 113 -87 43 25 67 56 67 87 0 31 -19 60 -39 60 -6 0 -11 5 -11 10 0 6 -18
10 -40 10 -22 0 -40 -4 -40 -10z"/>
<path d="M6916 10673 c-33 -9 -66 -50 -66 -84 0 -42 42 -79 90 -79 48 0 90 37
90 79 0 53 -60 97 -114 84z"/>
<path d="M14680 10660 c0 -5 -7 -10 -15 -10 -21 0 -21 -105 -1 -126 18 -18
105 -18 129 0 12 9 17 27 17 63 0 43 -4 53 -25 67 -27 17 -105 22 -105 6z"/>
<path d="M8613 10605 c-51 -55 -11 -135 67 -135 22 0 40 5 40 10 0 6 7 10 15
10 8 0 15 9 15 20 0 11 5 20 10 20 21 0 5 52 -27 87 -6 7 -31 13 -55 12 -32 0
-49 -6 -65 -24z"/>
<path d="M11063 10615 c-7 -8 -13 -38 -13 -67 0 -48 3 -54 27 -65 66 -31 133
5 133 71 0 20 -4 36 -9 36 -5 0 -13 9 -16 20 -5 17 -15 20 -58 20 -32 -1 -57
-6 -64 -15z"/>
<path d="M6320 10600 c0 -5 -7 -10 -15 -10 -8 0 -15 -9 -15 -20 0 -11 -4 -20
-10 -20 -5 0 -10 -9 -10 -20 0 -11 5 -20 10 -20 6 0 10 -7 10 -16 0 -48 93
-62 135 -19 54 53 15 135 -65 135 -22 0 -40 -4 -40 -10z"/>
<path d="M283 10535 c-19 -21 -17 -125 2 -125 8 0 15 -4 15 -10 0 -5 18 -10
40 -10 78 0 117 78 68 135 -17 20 -31 25 -67 25 -27 -1 -51 -7 -58 -15z"/>
<path d="M9230 10533 c-51 -15 -60 -26 -60 -70 0 -43 16 -73 39 -73 6 0 11 -4
11 -10 0 -5 14 -10 30 -10 17 0 30 5 30 10 0 6 5 10 11 10 35 0 55 95 26 124
-14 15 -65 26 -87 19z"/>
<path d="M2410 10500 c0 -5 -7 -10 -16 -10 -8 0 -22 -6 -30 -14 -18 -18 -18
-93 -1 -109 35 -32 87 -48 87 -27 0 6 7 10 16 10 27 0 44 27 44 70 0 43 -17
70 -44 70 -9 0 -16 5 -16 10 0 6 -9 10 -20 10 -11 0 -20 -4 -20 -10z"/>
<path d="M3760 10500 c0 -5 -5 -10 -11 -10 -20 0 -39 -29 -39 -59 0 -48 35
-81 84 -81 58 1 76 18 76 72 0 35 -5 49 -25 66 -25 22 -85 30 -85 12z"/>
<path d="M5760 10500 c0 -5 -5 -10 -11 -10 -22 0 -39 -30 -39 -70 0 -44 17
-70 47 -70 11 0 24 -5 31 -12 9 -9 12 -9 12 0 0 7 9 12 21 12 32 0 49 25 49
70 0 40 -17 70 -39 70 -6 0 -11 5 -11 10 0 6 -13 10 -30 10 -16 0 -30 -4 -30
-10z"/>
<path d="M12813 10405 c-13 -14 -23 -37 -23 -52 1 -30 20 -63 39 -63 6 0 11
-4 11 -10 0 -5 16 -10 35 -10 19 0 35 5 35 10 0 6 7 10 15 10 35 0 42 95 9
127 -22 23 -96 15 -121 -12z"/>
<path d="M9790 10400 c0 -5 -8 -10 -17 -10 -19 0 -43 -41 -43 -72 0 -34 45
-68 90 -68 52 0 70 18 70 70 0 40 -17 70 -39 70 -6 0 -11 5 -11 10 0 6 -11 10
-25 10 -14 0 -25 -4 -25 -10z"/>
<path d="M11593 10365 c-48 -51 -10 -135 60 -135 39 0 77 40 77 83 0 70 -89
104 -137 52z"/>
<path d="M14000 10380 c0 -5 -7 -10 -15 -10 -11 0 -15 -12 -15 -48 0 -39 5
-53 25 -70 25 -22 85 -30 85 -12 0 6 5 10 11 10 20 0 39 29 39 60 0 46 -38 80
-90 80 -22 0 -40 -4 -40 -10z"/>
<path d="M1073 10345 c-23 -24 -32 -75 -13 -75 6 0 10 -9 10 -20 0 -11 7 -20
15 -20 8 0 15 -4 15 -10 0 -5 16 -10 35 -10 19 0 35 5 35 10 0 6 9 10 20 10
18 0 20 7 20 56 0 67 -15 84 -75 83 -29 0 -46 -7 -62 -24z"/>
<path d="M5163 10335 c-18 -19 -16 -93 1 -111 8 -8 22 -14 30 -14 9 0 16 -4
16 -10 0 -5 9 -10 20 -10 11 0 20 5 20 10 0 6 7 10 16 10 43 0 62 90 26 123
-23 21 -112 22 -129 2z"/>
<path d="M3250 10240 c0 -5 -9 -10 -20 -10 -13 0 -20 -7 -20 -20 0 -11 -4 -20
-10 -20 -20 0 -10 -51 15 -75 18 -18 35 -25 65 -25 22 0 40 5 40 10 0 6 7 10
15 10 11 0 15 12 15 46 0 44 -16 74 -39 74 -6 0 -11 5 -11 10 0 6 -11 10 -25
10 -14 0 -25 -4 -25 -10z"/>
<path d="M10313 10205 c-36 -38 -25 -115 16 -115 6 0 11 -4 11 -10 0 -5 14
-10 30 -10 17 0 30 5 30 10 0 6 5 10 11 10 20 0 39 29 39 60 0 70 -90 106
-137 55z"/>
<path d="M1900 10160 c0 -5 -7 -10 -15 -10 -11 0 -15 -12 -15 -46 0 -44 16
-74 39 -74 6 0 11 -4 11 -10 0 -5 11 -10 25 -10 14 0 25 5 25 10 0 6 7 10 16
10 23 0 43 29 44 63 0 42 -40 77 -90 77 -22 0 -40 -4 -40 -10z"/>
<path d="M4613 10142 c-23 -28 -31 -72 -13 -72 6 0 10 -9 10 -20 0 -13 7 -20
20 -20 11 0 20 -4 20 -10 0 -5 11 -10 25 -10 14 0 25 5 25 10 0 6 5 10 11 10
22 0 39 30 39 71 0 51 -19 68 -75 68 -32 1 -45 -5 -62 -27z"/>
<path d="M12108 10096 c-12 -9 -18 -27 -18 -55 0 -44 17 -71 44 -71 9 0 16 -4
16 -10 0 -5 7 -10 15 -10 8 0 15 5 15 10 0 6 5 10 11 10 22 0 39 30 39 70 0
23 -6 48 -14 56 -18 18 -85 18 -108 0z"/>
<path d="M13330 10100 c0 -5 -9 -10 -20 -10 -13 0 -20 -7 -20 -20 0 -11 -4
-20 -10 -20 -22 0 -9 -53 18 -76 35 -31 76 -31 107 1 38 37 28 115 -14 115 -6
0 -11 5 -11 10 0 6 -11 10 -25 10 -14 0 -25 -4 -25 -10z"/>
<path d="M7280 10040 c0 -5 -5 -10 -11 -10 -22 0 -39 -30 -39 -70 0 -33 4 -43
20 -47 11 -3 20 -9 20 -14 0 -13 42 -11 73 4 23 10 27 18 27 55 0 42 -16 72
-39 72 -6 0 -11 5 -11 10 0 6 -9 10 -20 10 -11 0 -20 -4 -20 -10z"/>
<path d="M7860 10040 c0 -5 -5 -10 -11 -10 -42 0 -52 -78 -14 -115 24 -25 75
-35 75 -15 0 6 9 10 20 10 17 0 20 7 20 49 0 43 -4 52 -29 70 -31 22 -61 28
-61 11z"/>
<path d="M8450 10000 c0 -5 -7 -10 -16 -10 -28 0 -44 -27 -44 -74 0 -34 4 -46
15 -46 8 0 15 -4 15 -10 0 -5 18 -10 40 -10 22 0 40 5 40 10 0 6 7 10 15 10
11 0 15 12 15 46 0 44 -16 74 -39 74 -6 0 -11 5 -11 10 0 6 -7 10 -15 10 -8 0
-15 -4 -15 -10z"/>
<path d="M10853 9990 c-3 -11 -9 -20 -14 -20 -5 0 -9 -11 -9 -25 0 -36 42 -75
80 -75 38 0 80 39 80 75 0 14 -4 25 -9 25 -5 0 -11 9 -14 20 -4 17 -14 20 -57
20 -43 0 -53 -3 -57 -20z"/>
<path d="M14433 9985 c-27 -29 -29 -56 -7 -90 23 -36 91 -35 122 0 29 33 28
60 -3 90 -32 33 -82 33 -112 0z"/>
<path d="M633 9965 c-30 -31 -29 -60 2 -90 27 -28 88 -34 118 -11 25 19 23 86
-3 109 -30 25 -90 21 -117 -8z"/>
<path d="M6663 9975 c-19 -21 -17 -105 2 -105 8 0 15 -4 15 -10 0 -15 72 -12
93 4 21 16 23 91 3 112 -19 18 -97 18 -113 -1z"/>
<path d="M2740 9940 c0 -5 -5 -10 -11 -10 -7 0 -18 -8 -25 -17 -16 -21 -18
-63 -4 -63 6 0 10 -9 10 -20 0 -13 7 -20 20 -20 11 0 20 -4 20 -10 0 -21 52
-5 87 27 22 19 16 71 -12 98 -24 25 -85 35 -85 15z"/>
<path d="M4100 9940 c0 -5 -7 -10 -15 -10 -11 0 -15 -12 -15 -46 0 -46 16 -74
43 -74 9 0 17 -5 19 -11 4 -12 37 2 65 28 19 17 17 103 -2 103 -8 0 -15 5 -15
10 0 6 -18 10 -40 10 -22 0 -40 -4 -40 -10z"/>
<path d="M6093 9885 c-22 -24 -32 -75 -14 -75 5 0 11 -9 14 -20 8 -31 80 -28
112 5 25 24 33 55 15 55 -5 0 -10 7 -10 16 0 45 -81 58 -117 19z"/>
<path d="M8983 9895 c-18 -19 -16 -93 1 -111 8 -8 33 -14 55 -14 31 0 41 4 46
20 3 11 11 20 16 20 16 0 9 54 -10 78 -22 26 -88 30 -108 7z"/>
<path d="M1423 9795 c-21 -24 -15 -73 12 -100 24 -25 85 -35 85 -15 0 6 7 10
15 10 20 0 21 86 1 106 -19 18 -97 18 -113 -1z"/>
<path d="M12640 9800 c0 -5 -11 -10 -25 -10 -18 0 -25 -5 -25 -20 0 -11 -4
-20 -10 -20 -5 0 -10 -9 -10 -20 0 -11 5 -20 10 -20 6 0 10 -8 10 -17 0 -19
41 -43 72 -43 10 0 18 5 18 10 0 6 5 10 11 10 20 0 39 29 39 60 0 34 -19 60
-44 60 -9 0 -16 5 -16 10 0 6 -7 10 -15 10 -8 0 -15 -4 -15 -10z"/>
<path d="M9580 9780 c0 -5 -5 -10 -11 -10 -20 0 -39 -29 -39 -60 0 -42 20 -60
70 -60 23 0 48 6 56 14 28 29 10 106 -25 106 -6 0 -11 5 -11 10 0 6 -9 10 -20
10 -11 0 -20 -4 -20 -10z"/>
<path d="M5523 9755 c-23 -25 -16 -75 15 -101 27 -24 72 -33 72 -14 0 6 6 10
14 10 28 0 37 81 12 106 -19 18 -97 18 -113 -1z"/>
<path d="M11400 9760 c0 -5 -7 -10 -15 -10 -20 0 -21 -86 -1 -106 8 -8 32 -14
54 -14 67 0 95 68 47 115 -24 25 -85 35 -85 15z"/>
<path d="M13800 9740 c0 -5 -11 -10 -25 -10 -18 0 -25 -5 -25 -20 0 -11 -4
-20 -10 -20 -5 0 -10 -9 -10 -20 0 -11 5 -20 10 -20 6 0 10 -9 10 -20 0 -13 7
-20 20 -20 11 0 20 -4 20 -10 0 -5 9 -10 20 -10 11 0 20 5 20 10 0 6 9 10 20
10 13 0 20 7 20 20 0 11 5 20 10 20 6 0 10 9 10 20 0 11 -4 20 -10 20 -5 0
-10 9 -10 20 0 15 -7 20 -25 20 -14 0 -25 5 -25 10 0 6 -4 10 -10 10 -5 0 -10
-4 -10 -10z"/>
<path d="M3580 9680 c0 -5 -7 -10 -15 -10 -20 0 -21 -86 -1 -106 18 -18 85
-18 109 0 27 20 22 78 -8 104 -25 22 -85 30 -85 12z"/>
<path d="M2243 9595 c-19 -21 -17 -105 2 -105 8 0 25 -6 36 -12 17 -10 23 -10
26 0 3 6 13 12 24 12 12 0 19 7 19 20 0 11 5 20 10 20 6 0 10 9 10 20 0 11 -4
20 -9 20 -5 0 -11 9 -14 20 -4 16 -13 20 -49 20 -24 -1 -48 -7 -55 -15z"/>
<path d="M5000 9600 c0 -5 -5 -10 -11 -10 -19 0 -39 -28 -39 -54 0 -14 4 -26
9 -26 5 0 11 -9 14 -20 4 -16 14 -20 47 -20 54 0 70 17 70 74 0 39 -3 46 -20
46 -11 0 -20 5 -20 10 0 6 -11 10 -25 10 -14 0 -25 -4 -25 -10z"/>
<path d="M10103 9595 c-19 -21 -17 -105 2 -105 8 0 15 -4 15 -10 0 -5 14 -10
30 -10 36 0 80 39 80 70 0 33 -44 70 -82 70 -18 -1 -39 -7 -45 -15z"/>
<path d="M14857 9587 c-21 -26 -15 -84 11 -104 22 -16 62 -16 85 1 21 16 23
91 3 112 -23 22 -78 17 -99 -9z"/>
<path d="M240 9580 c0 -5 -7 -10 -15 -10 -23 0 -21 -88 3 -106 27 -21 70 -17
97 11 33 32 32 62 -2 91 -28 24 -83 33 -83 14z"/>
<path d="M11920 9480 c0 -5 -5 -10 -11 -10 -39 0 -52 -74 -19 -103 25 -21 86
-22 106 -3 28 29 10 106 -25 106 -6 0 -11 5 -11 10 0 6 -9 10 -20 10 -11 0
-20 -4 -20 -10z"/>
<path d="M13062 9430 c-16 -26 -15 -68 2 -86 8 -8 33 -14 56 -14 50 0 70 18
70 60 0 43 -20 60 -72 60 -32 0 -46 -5 -56 -20z"/>
<path d="M993 9405 c-13 -13 -23 -34 -23 -45 0 -23 22 -50 39 -50 6 0 11 -4
11 -10 0 -18 34 -10 63 14 32 28 37 81 10 102 -28 21 -75 16 -100 -11z"/>
<path d="M3063 9375 c-27 -30 -8 -105 25 -105 6 0 12 -6 15 -12 3 -10 10 -10
33 2 16 8 35 20 42 27 14 13 16 63 3 63 -5 0 -13 9 -16 20 -5 16 -15 20 -48
20 -23 -1 -48 -7 -54 -15z"/>
<path d="M4433 9365 c-13 -13 -23 -34 -23 -45 0 -23 22 -50 39 -50 6 0 11 -4
11 -10 0 -5 11 -10 25 -10 14 0 25 5 25 10 0 6 9 10 20 10 17 0 20 7 20 50 0
38 -4 50 -15 50 -8 0 -15 5 -15 10 0 20 -65 9 -87 -15z"/>
</g>
</svg>
