<svg 
 xmlns="http://www.w3.org/2000/svg"
 xmlns:xlink="http://www.w3.org/1999/xlink"
 width="73px" height="56px">
<path fill-rule="evenodd"  fill="rgb(255, 255, 255)"
 d="M64.669,56.000 L8.831,56.000 C4.227,56.000 0.500,52.304 0.500,47.739 L0.500,16.006 C0.500,11.441 4.227,7.745 8.831,7.745 L22.820,7.745 L22.820,8.482 C22.820,11.618 25.404,14.180 28.567,14.180 L44.933,14.180 C48.096,14.180 50.680,11.618 50.680,8.482 L50.680,7.745 L64.669,7.745 C69.273,7.745 73.000,11.456 73.000,16.006 L73.000,47.739 C73.000,52.304 69.273,56.000 64.669,56.000 ZM21.365,17.582 C13.405,17.582 6.945,23.987 6.945,31.880 C6.945,39.773 13.405,46.178 21.365,46.178 C29.340,46.178 35.785,39.773 35.785,31.880 C35.785,23.987 29.325,17.582 21.365,17.582 ZM64.847,23.840 L40.522,23.840 L40.522,26.918 L64.847,26.918 L64.847,23.840 ZM64.847,30.334 L40.522,30.334 L40.522,33.412 L64.847,33.412 L64.847,30.334 ZM64.847,36.828 L40.522,36.828 L40.522,39.905 L64.847,39.905 L64.847,36.828 ZM28.760,36.842 C26.473,36.268 24.617,34.972 24.617,34.972 L23.177,39.508 L22.909,40.362 L22.909,40.347 L22.672,41.069 L21.914,38.919 C23.845,36.254 21.409,36.357 21.409,36.357 C21.409,36.357 18.974,36.254 20.905,38.919 L20.132,41.083 L19.895,40.347 L18.172,34.958 C18.172,34.958 16.316,36.254 14.029,36.828 C12.841,37.122 12.440,38.183 12.336,39.110 C10.732,37.137 9.767,34.619 9.767,31.880 C9.767,25.504 14.979,20.336 21.409,20.336 C27.840,20.336 33.052,25.504 33.023,31.895 C33.023,34.634 32.057,37.152 30.453,39.125 C30.349,38.197 29.949,37.137 28.760,36.842 ZM25.582,28.891 C25.657,28.685 25.716,28.479 25.746,28.287 C26.370,24.503 24.498,24.370 24.498,24.370 C24.498,24.370 24.186,23.766 23.370,23.325 C22.820,23.001 22.063,22.750 21.053,22.839 C20.726,22.854 20.429,22.912 20.132,23.016 C19.776,23.133 19.434,23.325 19.123,23.531 C18.751,23.766 18.395,24.061 18.083,24.385 C17.593,24.900 17.147,25.548 16.954,26.358 C16.806,26.977 16.835,27.610 16.969,28.287 C17.014,28.493 17.058,28.685 17.133,28.891 C16.761,28.847 16.316,29.068 16.732,30.525 C17.029,31.600 17.326,31.895 17.533,31.910 C17.727,33.176 18.722,34.781 20.340,35.355 C21.008,35.591 21.736,35.591 22.404,35.355 C23.993,34.781 25.018,33.176 25.211,31.910 C25.419,31.895 25.716,31.586 26.013,30.525 C26.429,29.068 25.983,28.861 25.582,28.891 ZM44.947,11.441 L28.567,11.441 C26.919,11.441 25.582,10.131 25.582,8.482 L25.582,6.479 C25.582,4.845 26.919,3.519 28.567,3.519 L29.488,3.519 L29.488,2.268 C29.488,1.016 30.513,-0.000 31.775,-0.000 L41.740,-0.000 C43.002,-0.000 44.027,1.016 44.027,2.268 L44.027,3.519 L44.947,3.519 C46.596,3.519 47.932,4.845 47.932,6.479 L47.932,8.482 C47.932,10.116 46.596,11.441 44.947,11.441 Z"/>
</svg>